\BOOKMARK [0][-]{chapter*.7}{\376\377\000\332\000v\000o\000d}{}% 1
\BOOKMARK [0][-]{chapter.1}{\376\377\000C\000\355\000l\000\040\000p\000r\000\341\000c\000e}{}% 2
\BOOKMARK [0][-]{chapter.2}{\376\377\000A\000n\000a\000l\000\375\000z\000a}{}% 3
\BOOKMARK [1][-]{section.2.1}{\376\377\000B\000a\000c\000k\000e\000n\000d\000\040\000p\000r\000o\000j\000e\000k\000t\000u\000\040\000V\000M\001\014\000K}{chapter.2}% 4
\BOOKMARK [2][-]{subsection.2.1.1}{\376\377\000P\000r\000i\000v\000\341\000t\000n\000\355\000\040\000A\000P\000I}{section.2.1}% 5
\BOOKMARK [2][-]{subsection.2.1.2}{\376\377\000R\000e\000p\000r\000e\000z\000e\000n\000t\000a\000c\000e\000\040\000d\000a\000t}{section.2.1}% 6
\BOOKMARK [1][-]{section.2.2}{\376\377\000S\000c\000h\000v\000a\000l\000o\000v\000a\000c\000\355\000\040\000p\000r\000o\000c\000e\000s\000\040\0003\000D\000\040\000m\000o\000d\000e\000l\001\157}{chapter.2}% 7
\BOOKMARK [1][-]{section.2.3}{\376\377\000I\000n\000t\000e\000r\000n\000\355\000\040\000s\000t\000a\000v\000\040\0003\000D\000\040\000o\000b\000j\000e\000k\000t\001\157}{chapter.2}% 8
\BOOKMARK [1][-]{section.2.4}{\376\377\000C\000\355\000l\000o\000v\000\341\000\040\000h\000a\000r\000d\000w\000a\000r\000o\000v\000\341\000\040\000p\000l\000a\000t\000f\000o\000r\000m\000a}{chapter.2}% 9
\BOOKMARK [1][-]{section.2.5}{\376\377\000V\000\375\000v\000o\000j\000o\000v\000\351\000\040\000p\000r\000o\000s\000t\001\131\000e\000d\000\355\000\040\000U\000n\000i\000t\000y}{chapter.2}% 10
\BOOKMARK [0][-]{chapter.3}{\376\377\000N\000\341\000v\000r\000h}{}% 11
\BOOKMARK [1][-]{section.3.1}{\376\377\000A\000u\000t\000e\000n\000t\000i\000z\000a\000c\000e\000\040\000a\000\040\000a\000u\000t\000o\000r\000i\000z\000a\000c\000e}{chapter.3}% 12
\BOOKMARK [1][-]{section.3.2}{\376\377\000P\000o\000h\000y\000b\000\040\000h\000r\000\341\001\015\000e\000\040\000a\000\040\000a\000v\000a\000t\000a\000r}{chapter.3}% 13
\BOOKMARK [1][-]{section.3.3}{\376\377\000U\001\176\000i\000v\000a\000t\000e\000l\000s\000k\000\351\000\040\000r\000o\000z\000h\000r\000a\000n\000\355}{chapter.3}% 14
\BOOKMARK [2][-]{subsection.3.3.1}{\376\377\000T\000y\000p\000y\000\040\000U\000I\000\040\000v\000\040\000U\000n\000i\000t\000y\000\040\000E\000n\000g\000i\000n\000e\000\040\0003\000D}{section.3.3}% 15
\BOOKMARK [2][-]{subsection.3.3.2}{\376\377\000S\000e\000z\000n\000a\000m\000\040\000v\001\141\000e\000c\000h\000\040\000s\000t\000r\000u\000k\000t\000u\000r}{section.3.3}% 16
\BOOKMARK [2][-]{subsection.3.3.3}{\376\377\000D\000e\000t\000a\000i\000l\000\040\000s\000t\000r\000u\000k\000t\000u\000r\000y}{section.3.3}% 17
\BOOKMARK [2][-]{subsection.3.3.4}{\376\377\000D\000e\000t\000a\000i\000l\000\040\0003\000D\000\040\000o\000b\000j\000e\000k\000t\000u}{section.3.3}% 18
\BOOKMARK [2][-]{subsection.3.3.5}{\376\377\000D\000e\000t\000a\000i\000l\000\040\000s\000c\000h\000v\000a\000l\000o\000v\000a\000c\000\355\000h\000o\000\040\000p\000r\000o\000c\000e\000s\000u}{section.3.3}% 19
\BOOKMARK [2][-]{subsection.3.3.6}{\376\377\000I\000n\000f\000o\000r\000m\000a\000c\000e\000\040\000o\000\040\000u\001\176\000i\000v\000a\000t\000e\000l\000i\000\040\000a\000\040\000z\000\341\000h\000l\000a\000v\000\355}{section.3.3}% 20
\BOOKMARK [2][-]{subsection.3.3.7}{\376\377\000P\000o\000p\000i\000s\000\040\000o\000v\000l\000\341\000d\000\341\000n\000\355}{section.3.3}% 21
\BOOKMARK [1][-]{section.3.4}{\376\377\000S\000a\000d\000a\000\040\000n\000\341\000s\000t\000r\000o\000j\001\157\000\040\000p\000r\000o\000\040\000k\000o\000m\000e\000n\000t\000o\000v\000\341\000n\000\355}{chapter.3}% 22
\BOOKMARK [2][-]{subsection.3.4.1}{\376\377\000M\000i\000k\000r\000o\000f\000o\000n}{section.3.4}% 23
\BOOKMARK [2][-]{subsection.3.4.2}{\376\377\001\140\000t\001\033\000t\000e\000c}{section.3.4}% 24
\BOOKMARK [2][-]{subsection.3.4.3}{\376\377\000M\000e\000t\000r}{section.3.4}% 25
\BOOKMARK [2][-]{subsection.3.4.4}{\376\377\000F\000o\000t\000o\000a\000p\000a\000r\000\341\000t}{section.3.4}% 26
\BOOKMARK [2][-]{subsection.3.4.5}{\376\377\000M\000e\000n\000u\000\040\000p\000r\000o\000\040\000v\000\375\000b\001\033\000r\000\040\000n\000\341\000s\000t\000r\000o\000j\000e}{section.3.4}% 27
\BOOKMARK [1][-]{section.3.5}{\376\377\000K\000o\000m\000u\000n\000i\000k\000a\000c\000e\000\040\000s\000\040\000p\000r\000i\000v\000\341\000t\000n\000\355\000m\000\040\000A\000P\000I}{chapter.3}% 28
\BOOKMARK [1][-]{section.3.6}{\376\377\000I\000n\000t\000e\000r\000a\000k\000c\000e\000\040\000s\000\040\000h\000i\000s\000t\000o\000r\000i\000c\000k\000\375\000m\000i\000\040\000p\001\131\000e\000d\000m\001\033\000t\000y}{chapter.3}% 29
\BOOKMARK [0][-]{chapter.4}{\376\377\000R\000e\000a\000l\000i\000z\000a\000c\000e}{}% 30
\BOOKMARK [1][-]{section.4.1}{\376\377\000L\000a\000u\000n\000c\000h\000e\000r\000\040\000a\000\040\000p\001\131\000i\000h\000l\000\341\001\141\000e\000n\000\355}{chapter.4}% 31
\BOOKMARK [1][-]{section.4.2}{\376\377\000V\000i\000r\000t\000u\000\341\000l\000n\000\355\000\040\000p\000r\000o\000s\000t\001\131\000e\000d\000\355}{chapter.4}% 32
\BOOKMARK [1][-]{section.4.3}{\376\377\000P\000o\000h\000y\000b\000\040\000v\000e\000\040\000v\000i\000r\000t\000u\000\341\000l\000n\000\355\000m\000\040\000p\000r\000o\000s\000t\000o\000r\000u}{chapter.4}% 33
\BOOKMARK [1][-]{section.4.4}{\376\377\000U\001\176\000i\000v\000a\000t\000e\000l\000s\000k\000\351\000\040\000r\000o\000z\000h\000r\000a\000n\000\355}{chapter.4}% 34
\BOOKMARK [1][-]{section.4.5}{\376\377\000I\000n\000t\000e\000r\000a\000k\000c\000e\000\040\000s\000\040\000o\000b\000j\000e\000k\000t\000y}{chapter.4}% 35
\BOOKMARK [1][-]{section.4.6}{\376\377\000N\000\341\000s\000t\000r\000o\000j\000e}{chapter.4}% 36
\BOOKMARK [0][-]{chapter.5}{\376\377\000T\000e\000s\000t\000o\000v\000\341\000n\000\355\000\040\000p\000r\000o\000t\000o\000t\000y\000p\000u}{}% 37
\BOOKMARK [1][-]{section.5.1}{\376\377\000T\000e\000s\000t\000o\000v\000a\000c\000\355\000\040\000s\000c\000\351\000n\000\341\001\131\000e}{chapter.5}% 38
\BOOKMARK [2][-]{subsection.5.1.1}{\376\377\000P\001\131\000i\000h\000l\000\341\001\141\000e\000n\000\355}{section.5.1}% 39
\BOOKMARK [2][-]{subsection.5.1.2}{\376\377\000P\000o\000h\000y\000b\000\040\000a\000\040\000o\000v\000l\000\341\000d\000\341\000n\000\355}{section.5.1}% 40
\BOOKMARK [2][-]{subsection.5.1.3}{\376\377\000Z\000k\000o\000u\000m\000\341\000n\000\355\000\040\000h\000i\000s\000t\000o\000r\000i\000c\000k\000\351\000h\000o\000\040\000m\000o\000d\000e\000l\000u}{section.5.1}% 41
\BOOKMARK [1][-]{section.5.2}{\376\377\000V\000\375\000s\000l\000e\000d\000k\000y}{chapter.5}% 42
\BOOKMARK [0][-]{chapter*.41}{\376\377\000Z\000\341\000v\001\033\000r}{}% 43
\BOOKMARK [0][-]{chapter*.42}{\376\377\000L\000i\000t\000e\000r\000a\000t\000u\000r\000a}{}% 44
\BOOKMARK [0][-]{appendix.A}{\376\377\000S\000e\000z\000n\000a\000m\000\040\000p\000o\000u\001\176\000i\000t\000\375\000c\000h\000\040\000z\000k\000r\000a\000t\000e\000k}{}% 45
\BOOKMARK [0][-]{appendix.B}{\376\377\000O\000b\000s\000a\000h\000\040\000p\001\131\000i\000l\000o\001\176\000e\000n\000\351\000h\000o\000\040\000C\000D}{}% 46
