This is BibTeX, Version 0.99d
Capacity: max_strings=200000, hash_size=200000, hash_prime=170003
The top-level auxiliary file: BP_Marek_Klofac_2020.aux
Reallocating 'name_of_file' (item size: 1) to 7 items.
The style file: csn690.bst
Reallocating 'name_of_file' (item size: 1) to 19 items.
Database file #1: mybibliographyfile.bib
Reallocating 'wiz_functions' (item size: 4) to 6000 items.
You've used 35 entries,
            3185 wiz_defined-function locations,
            798 strings with 9746 characters,
and the built_in function-call counts, 10526 in all, are:
= -- 754
> -- 245
< -- 0
+ -- 106
- -- 70
* -- 484
:= -- 1330
add.period$ -- 70
call.type$ -- 35
change.case$ -- 132
chr.to.int$ -- 0
cite$ -- 35
duplicate$ -- 1058
empty$ -- 1116
format.name$ -- 70
if$ -- 2247
int.to.chr$ -- 0
int.to.str$ -- 35
missing$ -- 245
newline$ -- 142
num.names$ -- 70
pop$ -- 579
preamble$ -- 1
purify$ -- 105
quote$ -- 0
skip$ -- 314
stack$ -- 0
substring$ -- 230
swap$ -- 455
text.length$ -- 0
text.prefix$ -- 0
top$ -- 0
type$ -- 140
warning$ -- 0
while$ -- 70
width$ -- 37
write$ -- 351
