PWD d:\BAKALAR\bp\text
INPUT C:\Users\marak\AppData\Local\MiKTeX\miktex\data\le\pdftex\pdflatex.fmt
INPUT d:\BAKALAR\bp\text\BP_Marek_Klofac_2020.tex
OUTPUT d:\BAKALAR\bp\text\BP_Marek_Klofac_2020.log
INPUT d:\BAKALAR\bp\text\FITthesis.cls
INPUT d:\BAKALAR\bp\text\FITthesis.cls
INPUT d:\BAKALAR\bp\text\FITthesis.cls
INPUT d:\BAKALAR\bp\text\FITthesis.cls
INPUT d:\BAKALAR\bp\text\FITthesis.cls
INPUT d:\BAKALAR\bp\text\FITthesis.cls
INPUT d:\BAKALAR\bp\text\FITthesis.cls
INPUT d:\BAKALAR\bp\text\FITthesis.cls
INPUT d:\BAKALAR\bp\text\FITthesis.cls
INPUT d:\BAKALAR\bp\text\FITthesis.cls
INPUT d:\BAKALAR\bp\text\FITthesis.cls
INPUT D:\Programs\MikTex\tex\latex\memoir\memoir.cls
INPUT D:\Programs\MikTex\tex\latex\memoir\memoir.cls
INPUT D:\Programs\MikTex\tex\generic\babel\babel.sty
INPUT D:\Programs\MikTex\tex\generic\babel\babel.sty
INPUT D:\Programs\MikTex\tex\latex\memoir\memoir.cls
INPUT D:\Programs\MikTex\tex\latex\memoir\memoir.cls
INPUT D:\Programs\MikTex\tex\latex\memoir\memoir.cls
INPUT D:\Programs\MikTex\tex\latex\memoir\memoir.cls
INPUT D:\Programs\MikTex\tex\latex\memoir\memoir.cls
INPUT D:\Programs\MikTex\tex\latex\memoir\memoir.cls
INPUT D:\Programs\MikTex\tex\latex\memoir\memoir.cls
INPUT D:\Programs\MikTex\tex\latex\memoir\memoir.cls
INPUT D:\Programs\MikTex\tex\latex\memoir\memoir.cls
INPUT D:\Programs\MikTex\tex\latex\memoir\memoir.cls
INPUT D:\Programs\MikTex\tex\latex\memoir\memoir.cls
INPUT D:\Programs\MikTex\tex\generic\iftex\iftex.sty
INPUT D:\Programs\MikTex\tex\generic\iftex\iftex.sty
INPUT D:\Programs\MikTex\tex\generic\iftex\iftex.sty
INPUT D:\Programs\MikTex\tex\generic\iftex\iftex.sty
INPUT D:\Programs\MikTex\tex\generic\iftex\iftex.sty
INPUT D:\Programs\MikTex\tex\generic\iftex\iftex.sty
INPUT D:\Programs\MikTex\tex\generic\iftex\iftex.sty
INPUT D:\Programs\MikTex\tex\generic\iftex\iftex.sty
INPUT D:\Programs\MikTex\tex\generic\iftex\iftex.sty
INPUT D:\Programs\MikTex\tex\generic\iftex\iftex.sty
INPUT D:\Programs\MikTex\tex\generic\iftex\iftex.sty
INPUT D:\Programs\MikTex\tex\latex\memoir\mem11.clo
INPUT D:\Programs\MikTex\tex\latex\memoir\mem11.clo
INPUT D:\Programs\MikTex\tex\latex\memoir\mem11.clo
INPUT D:\Programs\MikTex\tex\latex\memoir\mem11.clo
INPUT D:\Programs\MikTex\fonts\tfm\public\cm\cmr10.tfm
INPUT D:\Programs\MikTex\tex\latex\latex-tools\array.sty
INPUT D:\Programs\MikTex\tex\latex\latex-tools\array.sty
INPUT D:\Programs\MikTex\tex\latex\latex-tools\array.sty
INPUT D:\Programs\MikTex\tex\latex\latex-tools\array.sty
INPUT D:\Programs\MikTex\tex\latex\latex-tools\array.sty
INPUT D:\Programs\MikTex\tex\latex\latex-tools\array.sty
INPUT D:\Programs\MikTex\tex\latex\latex-tools\array.sty
INPUT D:\Programs\MikTex\tex\latex\latex-tools\array.sty
INPUT D:\Programs\MikTex\tex\latex\latex-tools\array.sty
INPUT D:\Programs\MikTex\tex\latex\latex-tools\array.sty
INPUT D:\Programs\MikTex\tex\latex\latex-tools\array.sty
INPUT D:\Programs\MikTex\tex\latex\latex-tools\dcolumn.sty
INPUT D:\Programs\MikTex\tex\latex\latex-tools\dcolumn.sty
INPUT D:\Programs\MikTex\tex\latex\latex-tools\dcolumn.sty
INPUT D:\Programs\MikTex\tex\latex\latex-tools\dcolumn.sty
INPUT D:\Programs\MikTex\tex\latex\latex-tools\dcolumn.sty
INPUT D:\Programs\MikTex\tex\latex\latex-tools\dcolumn.sty
INPUT D:\Programs\MikTex\tex\latex\latex-tools\dcolumn.sty
INPUT D:\Programs\MikTex\tex\latex\latex-tools\dcolumn.sty
INPUT D:\Programs\MikTex\tex\latex\latex-tools\dcolumn.sty
INPUT D:\Programs\MikTex\tex\latex\latex-tools\dcolumn.sty
INPUT D:\Programs\MikTex\tex\latex\latex-tools\dcolumn.sty
INPUT D:\Programs\MikTex\tex\latex\latex-tools\array.sty
INPUT D:\Programs\MikTex\tex\latex\latex-tools\delarray.sty
INPUT D:\Programs\MikTex\tex\latex\latex-tools\delarray.sty
INPUT D:\Programs\MikTex\tex\latex\latex-tools\delarray.sty
INPUT D:\Programs\MikTex\tex\latex\latex-tools\delarray.sty
INPUT D:\Programs\MikTex\tex\latex\latex-tools\delarray.sty
INPUT D:\Programs\MikTex\tex\latex\latex-tools\delarray.sty
INPUT D:\Programs\MikTex\tex\latex\latex-tools\delarray.sty
INPUT D:\Programs\MikTex\tex\latex\latex-tools\delarray.sty
INPUT D:\Programs\MikTex\tex\latex\latex-tools\delarray.sty
INPUT D:\Programs\MikTex\tex\latex\latex-tools\delarray.sty
INPUT D:\Programs\MikTex\tex\latex\latex-tools\delarray.sty
INPUT D:\Programs\MikTex\tex\latex\latex-tools\array.sty
INPUT D:\Programs\MikTex\tex\latex\latex-tools\tabularx.sty
INPUT D:\Programs\MikTex\tex\latex\latex-tools\tabularx.sty
INPUT D:\Programs\MikTex\tex\latex\latex-tools\tabularx.sty
INPUT D:\Programs\MikTex\tex\latex\latex-tools\tabularx.sty
INPUT D:\Programs\MikTex\tex\latex\latex-tools\tabularx.sty
INPUT D:\Programs\MikTex\tex\latex\latex-tools\tabularx.sty
INPUT D:\Programs\MikTex\tex\latex\latex-tools\tabularx.sty
INPUT D:\Programs\MikTex\tex\latex\latex-tools\tabularx.sty
INPUT D:\Programs\MikTex\tex\latex\latex-tools\tabularx.sty
INPUT D:\Programs\MikTex\tex\latex\latex-tools\tabularx.sty
INPUT D:\Programs\MikTex\tex\latex\latex-tools\tabularx.sty
INPUT D:\Programs\MikTex\tex\latex\latex-tools\array.sty
INPUT D:\Programs\MikTex\fonts\tfm\public\cm\cmr9.tfm
INPUT D:\Programs\MikTex\tex\latex\textcase\textcase.sty
INPUT D:\Programs\MikTex\tex\latex\textcase\textcase.sty
INPUT D:\Programs\MikTex\tex\latex\textcase\textcase.sty
INPUT D:\Programs\MikTex\tex\latex\textcase\textcase.sty
INPUT D:\Programs\MikTex\tex\latex\textcase\textcase.sty
INPUT D:\Programs\MikTex\tex\latex\textcase\textcase.sty
INPUT D:\Programs\MikTex\tex\latex\textcase\textcase.sty
INPUT D:\Programs\MikTex\tex\latex\textcase\textcase.sty
INPUT D:\Programs\MikTex\tex\latex\textcase\textcase.sty
INPUT D:\Programs\MikTex\tex\latex\textcase\textcase.sty
INPUT D:\Programs\MikTex\tex\latex\textcase\textcase.sty
INPUT D:\Programs\MikTex\tex\latex\textcase\textcase.sty
INPUT D:\Programs\MikTex\tex\latex\textcase\textcase.sty
INPUT D:\Programs\MikTex\tex\generic\babel\babel.sty
INPUT D:\Programs\MikTex\tex\generic\babel\babel.sty
INPUT D:\Programs\MikTex\tex\generic\babel\babel.sty
INPUT D:\Programs\MikTex\tex\generic\babel\babel.sty
INPUT D:\Programs\MikTex\tex\generic\babel\babel.sty
INPUT D:\Programs\MikTex\tex\generic\babel\babel.sty
INPUT D:\Programs\MikTex\tex\generic\babel\babel.sty
INPUT D:\Programs\MikTex\tex\generic\babel\babel.sty
INPUT D:\Programs\MikTex\tex\generic\babel\babel.sty
INPUT D:\Programs\MikTex\tex\generic\babel\babel.sty
INPUT D:\Programs\MikTex\tex\generic\babel\babel.sty
INPUT D:\Programs\MikTex\tex\generic\babel\babel.def
INPUT D:\Programs\MikTex\tex\generic\babel\txtbabel.def
INPUT D:\Programs\MikTex\tex\latex\arabi\bblopts.cfg
INPUT D:\Programs\MikTex\tex\latex\arabi\bblopts.cfg
INPUT D:\Programs\MikTex\tex\latex\arabi\bblopts.cfg
INPUT D:\Programs\MikTex\tex\latex\arabi\bblopts.cfg
INPUT D:\Programs\MikTex\tex\latex\babel-english\english.ldf
INPUT D:\Programs\MikTex\tex\latex\babel-english\english.ldf
INPUT D:\Programs\MikTex\tex\latex\babel-english\english.ldf
INPUT D:\Programs\MikTex\tex\latex\babel-english\english.ldf
INPUT D:\Programs\MikTex\tex\latex\babel-czech\czech.ldf
INPUT D:\Programs\MikTex\tex\latex\babel-czech\czech.ldf
INPUT D:\Programs\MikTex\tex\latex\babel-czech\czech.ldf
INPUT D:\Programs\MikTex\tex\latex\babel-czech\czech.ldf
INPUT D:\Programs\MikTex\tex\latex\babel-czech\czech.ldf
INPUT D:\Programs\MikTex\tex\latex\babel-czech\czech.ldf
INPUT D:\Programs\MikTex\tex\latex\babel-czech\czech.ldf
INPUT D:\Programs\MikTex\tex\latex\babel-czech\czech.ldf
INPUT D:\Programs\MikTex\tex\latex\hyperref\hyperref.sty
INPUT D:\Programs\MikTex\tex\latex\hyperref\hyperref.sty
INPUT D:\Programs\MikTex\tex\latex\hyperref\hyperref.sty
INPUT D:\Programs\MikTex\tex\latex\hyperref\hyperref.sty
INPUT D:\Programs\MikTex\tex\latex\hyperref\hyperref.sty
INPUT D:\Programs\MikTex\tex\latex\hyperref\hyperref.sty
INPUT D:\Programs\MikTex\tex\latex\hyperref\hyperref.sty
INPUT D:\Programs\MikTex\tex\latex\hyperref\hyperref.sty
INPUT D:\Programs\MikTex\tex\latex\hyperref\hyperref.sty
INPUT D:\Programs\MikTex\tex\latex\hyperref\hyperref.sty
INPUT D:\Programs\MikTex\tex\latex\hyperref\hyperref.sty
INPUT D:\Programs\MikTex\tex\generic\ltxcmds\ltxcmds.sty
INPUT D:\Programs\MikTex\tex\generic\ltxcmds\ltxcmds.sty
INPUT D:\Programs\MikTex\tex\generic\ltxcmds\ltxcmds.sty
INPUT D:\Programs\MikTex\tex\generic\ltxcmds\ltxcmds.sty
INPUT D:\Programs\MikTex\tex\generic\ltxcmds\ltxcmds.sty
INPUT D:\Programs\MikTex\tex\generic\ltxcmds\ltxcmds.sty
INPUT D:\Programs\MikTex\tex\generic\ltxcmds\ltxcmds.sty
INPUT D:\Programs\MikTex\tex\generic\ltxcmds\ltxcmds.sty
INPUT D:\Programs\MikTex\tex\generic\ltxcmds\ltxcmds.sty
INPUT D:\Programs\MikTex\tex\generic\ltxcmds\ltxcmds.sty
INPUT D:\Programs\MikTex\tex\generic\ltxcmds\ltxcmds.sty
INPUT D:\Programs\MikTex\tex\generic\iftex\iftex.sty
INPUT D:\Programs\MikTex\tex\generic\pdftexcmds\pdftexcmds.sty
INPUT D:\Programs\MikTex\tex\generic\pdftexcmds\pdftexcmds.sty
INPUT D:\Programs\MikTex\tex\generic\pdftexcmds\pdftexcmds.sty
INPUT D:\Programs\MikTex\tex\generic\pdftexcmds\pdftexcmds.sty
INPUT D:\Programs\MikTex\tex\generic\pdftexcmds\pdftexcmds.sty
INPUT D:\Programs\MikTex\tex\generic\pdftexcmds\pdftexcmds.sty
INPUT D:\Programs\MikTex\tex\generic\pdftexcmds\pdftexcmds.sty
INPUT D:\Programs\MikTex\tex\generic\pdftexcmds\pdftexcmds.sty
INPUT D:\Programs\MikTex\tex\generic\pdftexcmds\pdftexcmds.sty
INPUT D:\Programs\MikTex\tex\generic\pdftexcmds\pdftexcmds.sty
INPUT D:\Programs\MikTex\tex\generic\pdftexcmds\pdftexcmds.sty
INPUT D:\Programs\MikTex\tex\generic\infwarerr\infwarerr.sty
INPUT D:\Programs\MikTex\tex\generic\infwarerr\infwarerr.sty
INPUT D:\Programs\MikTex\tex\generic\infwarerr\infwarerr.sty
INPUT D:\Programs\MikTex\tex\generic\infwarerr\infwarerr.sty
INPUT D:\Programs\MikTex\tex\generic\infwarerr\infwarerr.sty
INPUT D:\Programs\MikTex\tex\generic\infwarerr\infwarerr.sty
INPUT D:\Programs\MikTex\tex\generic\infwarerr\infwarerr.sty
INPUT D:\Programs\MikTex\tex\generic\infwarerr\infwarerr.sty
INPUT D:\Programs\MikTex\tex\generic\infwarerr\infwarerr.sty
INPUT D:\Programs\MikTex\tex\generic\infwarerr\infwarerr.sty
INPUT D:\Programs\MikTex\tex\generic\infwarerr\infwarerr.sty
INPUT D:\Programs\MikTex\tex\generic\iftex\iftex.sty
INPUT D:\Programs\MikTex\tex\generic\ltxcmds\ltxcmds.sty
INPUT D:\Programs\MikTex\tex\generic\infwarerr\infwarerr.sty
INPUT D:\Programs\MikTex\tex\latex\graphics\keyval.sty
INPUT D:\Programs\MikTex\tex\latex\graphics\keyval.sty
INPUT D:\Programs\MikTex\tex\latex\graphics\keyval.sty
INPUT D:\Programs\MikTex\tex\latex\graphics\keyval.sty
INPUT D:\Programs\MikTex\tex\latex\graphics\keyval.sty
INPUT D:\Programs\MikTex\tex\latex\graphics\keyval.sty
INPUT D:\Programs\MikTex\tex\latex\graphics\keyval.sty
INPUT D:\Programs\MikTex\tex\latex\graphics\keyval.sty
INPUT D:\Programs\MikTex\tex\latex\graphics\keyval.sty
INPUT D:\Programs\MikTex\tex\latex\graphics\keyval.sty
INPUT D:\Programs\MikTex\tex\latex\graphics\keyval.sty
INPUT D:\Programs\MikTex\tex\generic\kvsetkeys\kvsetkeys.sty
INPUT D:\Programs\MikTex\tex\generic\kvsetkeys\kvsetkeys.sty
INPUT D:\Programs\MikTex\tex\generic\kvsetkeys\kvsetkeys.sty
INPUT D:\Programs\MikTex\tex\generic\kvsetkeys\kvsetkeys.sty
INPUT D:\Programs\MikTex\tex\generic\kvsetkeys\kvsetkeys.sty
INPUT D:\Programs\MikTex\tex\generic\kvsetkeys\kvsetkeys.sty
INPUT D:\Programs\MikTex\tex\generic\kvsetkeys\kvsetkeys.sty
INPUT D:\Programs\MikTex\tex\generic\kvsetkeys\kvsetkeys.sty
INPUT D:\Programs\MikTex\tex\generic\kvsetkeys\kvsetkeys.sty
INPUT D:\Programs\MikTex\tex\generic\kvsetkeys\kvsetkeys.sty
INPUT D:\Programs\MikTex\tex\generic\kvsetkeys\kvsetkeys.sty
INPUT D:\Programs\MikTex\tex\generic\kvdefinekeys\kvdefinekeys.sty
INPUT D:\Programs\MikTex\tex\generic\kvdefinekeys\kvdefinekeys.sty
INPUT D:\Programs\MikTex\tex\generic\kvdefinekeys\kvdefinekeys.sty
INPUT D:\Programs\MikTex\tex\generic\kvdefinekeys\kvdefinekeys.sty
INPUT D:\Programs\MikTex\tex\generic\kvdefinekeys\kvdefinekeys.sty
INPUT D:\Programs\MikTex\tex\generic\kvdefinekeys\kvdefinekeys.sty
INPUT D:\Programs\MikTex\tex\generic\kvdefinekeys\kvdefinekeys.sty
INPUT D:\Programs\MikTex\tex\generic\kvdefinekeys\kvdefinekeys.sty
INPUT D:\Programs\MikTex\tex\generic\kvdefinekeys\kvdefinekeys.sty
INPUT D:\Programs\MikTex\tex\generic\kvdefinekeys\kvdefinekeys.sty
INPUT D:\Programs\MikTex\tex\generic\kvdefinekeys\kvdefinekeys.sty
INPUT D:\Programs\MikTex\tex\generic\pdfescape\pdfescape.sty
INPUT D:\Programs\MikTex\tex\generic\pdfescape\pdfescape.sty
INPUT D:\Programs\MikTex\tex\generic\pdfescape\pdfescape.sty
INPUT D:\Programs\MikTex\tex\generic\pdfescape\pdfescape.sty
INPUT D:\Programs\MikTex\tex\generic\pdfescape\pdfescape.sty
INPUT D:\Programs\MikTex\tex\generic\pdfescape\pdfescape.sty
INPUT D:\Programs\MikTex\tex\generic\pdfescape\pdfescape.sty
INPUT D:\Programs\MikTex\tex\generic\pdfescape\pdfescape.sty
INPUT D:\Programs\MikTex\tex\generic\pdfescape\pdfescape.sty
INPUT D:\Programs\MikTex\tex\generic\pdfescape\pdfescape.sty
INPUT D:\Programs\MikTex\tex\generic\pdfescape\pdfescape.sty
INPUT D:\Programs\MikTex\tex\generic\ltxcmds\ltxcmds.sty
INPUT D:\Programs\MikTex\tex\generic\pdftexcmds\pdftexcmds.sty
INPUT D:\Programs\MikTex\tex\latex\hycolor\hycolor.sty
INPUT D:\Programs\MikTex\tex\latex\hycolor\hycolor.sty
INPUT D:\Programs\MikTex\tex\latex\hycolor\hycolor.sty
INPUT D:\Programs\MikTex\tex\latex\hycolor\hycolor.sty
INPUT D:\Programs\MikTex\tex\latex\hycolor\hycolor.sty
INPUT D:\Programs\MikTex\tex\latex\hycolor\hycolor.sty
INPUT D:\Programs\MikTex\tex\latex\hycolor\hycolor.sty
INPUT D:\Programs\MikTex\tex\latex\hycolor\hycolor.sty
INPUT D:\Programs\MikTex\tex\latex\hycolor\hycolor.sty
INPUT D:\Programs\MikTex\tex\latex\hycolor\hycolor.sty
INPUT D:\Programs\MikTex\tex\latex\hycolor\hycolor.sty
INPUT D:\Programs\MikTex\tex\latex\letltxmacro\letltxmacro.sty
INPUT D:\Programs\MikTex\tex\latex\letltxmacro\letltxmacro.sty
INPUT D:\Programs\MikTex\tex\latex\letltxmacro\letltxmacro.sty
INPUT D:\Programs\MikTex\tex\latex\letltxmacro\letltxmacro.sty
INPUT D:\Programs\MikTex\tex\latex\letltxmacro\letltxmacro.sty
INPUT D:\Programs\MikTex\tex\latex\letltxmacro\letltxmacro.sty
INPUT D:\Programs\MikTex\tex\latex\letltxmacro\letltxmacro.sty
INPUT D:\Programs\MikTex\tex\latex\letltxmacro\letltxmacro.sty
INPUT D:\Programs\MikTex\tex\latex\letltxmacro\letltxmacro.sty
INPUT D:\Programs\MikTex\tex\latex\letltxmacro\letltxmacro.sty
INPUT D:\Programs\MikTex\tex\latex\letltxmacro\letltxmacro.sty
INPUT D:\Programs\MikTex\tex\latex\auxhook\auxhook.sty
INPUT D:\Programs\MikTex\tex\latex\auxhook\auxhook.sty
INPUT D:\Programs\MikTex\tex\latex\auxhook\auxhook.sty
INPUT D:\Programs\MikTex\tex\latex\auxhook\auxhook.sty
INPUT D:\Programs\MikTex\tex\latex\auxhook\auxhook.sty
INPUT D:\Programs\MikTex\tex\latex\auxhook\auxhook.sty
INPUT D:\Programs\MikTex\tex\latex\auxhook\auxhook.sty
INPUT D:\Programs\MikTex\tex\latex\auxhook\auxhook.sty
INPUT D:\Programs\MikTex\tex\latex\auxhook\auxhook.sty
INPUT D:\Programs\MikTex\tex\latex\auxhook\auxhook.sty
INPUT D:\Programs\MikTex\tex\latex\auxhook\auxhook.sty
INPUT D:\Programs\MikTex\tex\latex\kvoptions\kvoptions.sty
INPUT D:\Programs\MikTex\tex\latex\kvoptions\kvoptions.sty
INPUT D:\Programs\MikTex\tex\latex\kvoptions\kvoptions.sty
INPUT D:\Programs\MikTex\tex\latex\kvoptions\kvoptions.sty
INPUT D:\Programs\MikTex\tex\latex\kvoptions\kvoptions.sty
INPUT D:\Programs\MikTex\tex\latex\kvoptions\kvoptions.sty
INPUT D:\Programs\MikTex\tex\latex\kvoptions\kvoptions.sty
INPUT D:\Programs\MikTex\tex\latex\kvoptions\kvoptions.sty
INPUT D:\Programs\MikTex\tex\latex\kvoptions\kvoptions.sty
INPUT D:\Programs\MikTex\tex\latex\kvoptions\kvoptions.sty
INPUT D:\Programs\MikTex\tex\latex\kvoptions\kvoptions.sty
INPUT D:\Programs\MikTex\tex\generic\ltxcmds\ltxcmds.sty
INPUT D:\Programs\MikTex\tex\generic\kvsetkeys\kvsetkeys.sty
INPUT D:\Programs\MikTex\tex\latex\hyperref\pd1enc.def
INPUT D:\Programs\MikTex\tex\latex\hyperref\pd1enc.def
INPUT D:\Programs\MikTex\tex\latex\hyperref\pd1enc.def
INPUT D:\Programs\MikTex\tex\latex\hyperref\pd1enc.def
INPUT D:\Programs\MikTex\tex\latex\hyperref\hyperref-langpatches.def
INPUT D:\Programs\MikTex\tex\latex\hyperref\hyperref-langpatches.def
INPUT D:\Programs\MikTex\tex\latex\hyperref\hyperref-langpatches.def
INPUT D:\Programs\MikTex\tex\latex\hyperref\hyperref-langpatches.def
INPUT D:\Programs\MikTex\tex\generic\intcalc\intcalc.sty
INPUT D:\Programs\MikTex\tex\generic\intcalc\intcalc.sty
INPUT D:\Programs\MikTex\tex\generic\intcalc\intcalc.sty
INPUT D:\Programs\MikTex\tex\generic\intcalc\intcalc.sty
INPUT D:\Programs\MikTex\tex\generic\intcalc\intcalc.sty
INPUT D:\Programs\MikTex\tex\generic\intcalc\intcalc.sty
INPUT D:\Programs\MikTex\tex\generic\intcalc\intcalc.sty
INPUT D:\Programs\MikTex\tex\generic\intcalc\intcalc.sty
INPUT D:\Programs\MikTex\tex\generic\intcalc\intcalc.sty
INPUT D:\Programs\MikTex\tex\generic\intcalc\intcalc.sty
INPUT D:\Programs\MikTex\tex\generic\intcalc\intcalc.sty
INPUT D:\Programs\MikTex\tex\generic\etexcmds\etexcmds.sty
INPUT D:\Programs\MikTex\tex\generic\etexcmds\etexcmds.sty
INPUT D:\Programs\MikTex\tex\generic\etexcmds\etexcmds.sty
INPUT D:\Programs\MikTex\tex\generic\etexcmds\etexcmds.sty
INPUT D:\Programs\MikTex\tex\generic\etexcmds\etexcmds.sty
INPUT D:\Programs\MikTex\tex\generic\etexcmds\etexcmds.sty
INPUT D:\Programs\MikTex\tex\generic\etexcmds\etexcmds.sty
INPUT D:\Programs\MikTex\tex\generic\etexcmds\etexcmds.sty
INPUT D:\Programs\MikTex\tex\generic\etexcmds\etexcmds.sty
INPUT D:\Programs\MikTex\tex\generic\etexcmds\etexcmds.sty
INPUT D:\Programs\MikTex\tex\generic\etexcmds\etexcmds.sty
INPUT D:\Programs\MikTex\tex\generic\infwarerr\infwarerr.sty
INPUT D:\Programs\MikTex\tex\generic\iftex\iftex.sty
INPUT D:\Programs\MikTex\tex\latex\hyperref\puenc.def
INPUT D:\Programs\MikTex\tex\latex\hyperref\puenc.def
INPUT D:\Programs\MikTex\tex\latex\hyperref\puenc.def
INPUT D:\Programs\MikTex\tex\latex\hyperref\puenc.def
INPUT D:\Programs\MikTex\tex\latex\url\url.sty
INPUT D:\Programs\MikTex\tex\latex\url\url.sty
INPUT D:\Programs\MikTex\tex\latex\url\url.sty
INPUT D:\Programs\MikTex\tex\latex\url\url.sty
INPUT D:\Programs\MikTex\tex\latex\url\url.sty
INPUT D:\Programs\MikTex\tex\latex\url\url.sty
INPUT D:\Programs\MikTex\tex\latex\url\url.sty
INPUT D:\Programs\MikTex\tex\latex\url\url.sty
INPUT D:\Programs\MikTex\tex\latex\url\url.sty
INPUT D:\Programs\MikTex\tex\latex\url\url.sty
INPUT D:\Programs\MikTex\tex\latex\url\url.sty
INPUT D:\Programs\MikTex\tex\generic\bitset\bitset.sty
INPUT D:\Programs\MikTex\tex\generic\bitset\bitset.sty
INPUT D:\Programs\MikTex\tex\generic\bitset\bitset.sty
INPUT D:\Programs\MikTex\tex\generic\bitset\bitset.sty
INPUT D:\Programs\MikTex\tex\generic\bitset\bitset.sty
INPUT D:\Programs\MikTex\tex\generic\bitset\bitset.sty
INPUT D:\Programs\MikTex\tex\generic\bitset\bitset.sty
INPUT D:\Programs\MikTex\tex\generic\bitset\bitset.sty
INPUT D:\Programs\MikTex\tex\generic\bitset\bitset.sty
INPUT D:\Programs\MikTex\tex\generic\bitset\bitset.sty
INPUT D:\Programs\MikTex\tex\generic\bitset\bitset.sty
INPUT D:\Programs\MikTex\tex\generic\infwarerr\infwarerr.sty
INPUT D:\Programs\MikTex\tex\generic\intcalc\intcalc.sty
INPUT D:\Programs\MikTex\tex\generic\bigintcalc\bigintcalc.sty
INPUT D:\Programs\MikTex\tex\generic\bigintcalc\bigintcalc.sty
INPUT D:\Programs\MikTex\tex\generic\bigintcalc\bigintcalc.sty
INPUT D:\Programs\MikTex\tex\generic\bigintcalc\bigintcalc.sty
INPUT D:\Programs\MikTex\tex\generic\bigintcalc\bigintcalc.sty
INPUT D:\Programs\MikTex\tex\generic\bigintcalc\bigintcalc.sty
INPUT D:\Programs\MikTex\tex\generic\bigintcalc\bigintcalc.sty
INPUT D:\Programs\MikTex\tex\generic\bigintcalc\bigintcalc.sty
INPUT D:\Programs\MikTex\tex\generic\bigintcalc\bigintcalc.sty
INPUT D:\Programs\MikTex\tex\generic\bigintcalc\bigintcalc.sty
INPUT D:\Programs\MikTex\tex\generic\bigintcalc\bigintcalc.sty
INPUT D:\Programs\MikTex\tex\generic\pdftexcmds\pdftexcmds.sty
INPUT D:\Programs\MikTex\tex\generic\atbegshi\atbegshi.sty
INPUT D:\Programs\MikTex\tex\generic\atbegshi\atbegshi.sty
INPUT D:\Programs\MikTex\tex\generic\atbegshi\atbegshi.sty
INPUT D:\Programs\MikTex\tex\latex\base\atbegshi-ltx.sty
INPUT D:\Programs\MikTex\tex\generic\atbegshi\atbegshi.sty
INPUT D:\Programs\MikTex\tex\generic\atbegshi\atbegshi.sty
INPUT D:\Programs\MikTex\tex\latex\base\atbegshi-ltx.sty
INPUT D:\Programs\MikTex\tex\generic\atbegshi\atbegshi.sty
INPUT D:\Programs\MikTex\tex\latex\base\atbegshi-ltx.sty
INPUT D:\Programs\MikTex\tex\latex\base\atbegshi-ltx.sty
INPUT D:\Programs\MikTex\tex\generic\atbegshi\atbegshi.sty
INPUT D:\Programs\MikTex\tex\generic\atbegshi\atbegshi.sty
INPUT D:\Programs\MikTex\tex\latex\base\atbegshi-ltx.sty
INPUT D:\Programs\MikTex\tex\latex\base\atbegshi-ltx.sty
INPUT D:\Programs\MikTex\tex\generic\atbegshi\atbegshi.sty
INPUT D:\Programs\MikTex\tex\latex\base\atbegshi-ltx.sty
INPUT D:\Programs\MikTex\tex\latex\memoir\memhfixc.sty
INPUT D:\Programs\MikTex\tex\latex\memoir\memhfixc.sty
INPUT D:\Programs\MikTex\tex\latex\memoir\memhfixc.sty
INPUT D:\Programs\MikTex\tex\latex\memoir\memhfixc.sty
INPUT D:\Programs\MikTex\tex\latex\memoir\memhfixc.sty
INPUT D:\Programs\MikTex\tex\latex\memoir\memhfixc.sty
INPUT D:\Programs\MikTex\tex\latex\memoir\memhfixc.sty
INPUT D:\Programs\MikTex\tex\latex\memoir\memhfixc.sty
INPUT D:\Programs\MikTex\tex\latex\memoir\memhfixc.sty
INPUT D:\Programs\MikTex\tex\latex\memoir\memhfixc.sty
INPUT D:\Programs\MikTex\tex\latex\memoir\memhfixc.sty
INPUT D:\Programs\MikTex\tex\latex\hyperref\hpdftex.def
INPUT D:\Programs\MikTex\tex\latex\hyperref\hpdftex.def
INPUT D:\Programs\MikTex\tex\latex\hyperref\hpdftex.def
INPUT D:\Programs\MikTex\tex\latex\hyperref\hpdftex.def
INPUT D:\Programs\MikTex\tex\latex\atveryend\atveryend.sty
INPUT D:\Programs\MikTex\tex\latex\atveryend\atveryend.sty
INPUT D:\Programs\MikTex\tex\latex\atveryend\atveryend.sty
INPUT D:\Programs\MikTex\tex\latex\base\atveryend-ltx.sty
INPUT D:\Programs\MikTex\tex\latex\atveryend\atveryend.sty
INPUT D:\Programs\MikTex\tex\latex\atveryend\atveryend.sty
INPUT D:\Programs\MikTex\tex\latex\base\atveryend-ltx.sty
INPUT D:\Programs\MikTex\tex\latex\atveryend\atveryend.sty
INPUT D:\Programs\MikTex\tex\latex\base\atveryend-ltx.sty
INPUT D:\Programs\MikTex\tex\latex\base\atveryend-ltx.sty
INPUT D:\Programs\MikTex\tex\latex\atveryend\atveryend.sty
INPUT D:\Programs\MikTex\tex\latex\atveryend\atveryend.sty
INPUT D:\Programs\MikTex\tex\latex\base\atveryend-ltx.sty
INPUT D:\Programs\MikTex\tex\latex\base\atveryend-ltx.sty
INPUT D:\Programs\MikTex\tex\latex\atveryend\atveryend.sty
INPUT D:\Programs\MikTex\tex\latex\base\atveryend-ltx.sty
INPUT D:\Programs\MikTex\tex\latex\rerunfilecheck\rerunfilecheck.sty
INPUT D:\Programs\MikTex\tex\latex\rerunfilecheck\rerunfilecheck.sty
INPUT D:\Programs\MikTex\tex\latex\rerunfilecheck\rerunfilecheck.sty
INPUT D:\Programs\MikTex\tex\latex\rerunfilecheck\rerunfilecheck.sty
INPUT D:\Programs\MikTex\tex\latex\rerunfilecheck\rerunfilecheck.sty
INPUT D:\Programs\MikTex\tex\latex\rerunfilecheck\rerunfilecheck.sty
INPUT D:\Programs\MikTex\tex\latex\rerunfilecheck\rerunfilecheck.sty
INPUT D:\Programs\MikTex\tex\latex\rerunfilecheck\rerunfilecheck.sty
INPUT D:\Programs\MikTex\tex\latex\rerunfilecheck\rerunfilecheck.sty
INPUT D:\Programs\MikTex\tex\latex\rerunfilecheck\rerunfilecheck.sty
INPUT D:\Programs\MikTex\tex\latex\rerunfilecheck\rerunfilecheck.sty
INPUT D:\Programs\MikTex\tex\latex\kvoptions\kvoptions.sty
INPUT D:\Programs\MikTex\tex\generic\infwarerr\infwarerr.sty
INPUT D:\Programs\MikTex\tex\generic\pdftexcmds\pdftexcmds.sty
INPUT D:\Programs\MikTex\tex\latex\atveryend\atveryend.sty
INPUT D:\Programs\MikTex\tex\generic\uniquecounter\uniquecounter.sty
INPUT D:\Programs\MikTex\tex\generic\uniquecounter\uniquecounter.sty
INPUT D:\Programs\MikTex\tex\generic\uniquecounter\uniquecounter.sty
INPUT D:\Programs\MikTex\tex\generic\uniquecounter\uniquecounter.sty
INPUT D:\Programs\MikTex\tex\generic\uniquecounter\uniquecounter.sty
INPUT D:\Programs\MikTex\tex\generic\uniquecounter\uniquecounter.sty
INPUT D:\Programs\MikTex\tex\generic\uniquecounter\uniquecounter.sty
INPUT D:\Programs\MikTex\tex\generic\uniquecounter\uniquecounter.sty
INPUT D:\Programs\MikTex\tex\generic\uniquecounter\uniquecounter.sty
INPUT D:\Programs\MikTex\tex\generic\uniquecounter\uniquecounter.sty
INPUT D:\Programs\MikTex\tex\generic\uniquecounter\uniquecounter.sty
INPUT D:\Programs\MikTex\tex\generic\bigintcalc\bigintcalc.sty
INPUT D:\Programs\MikTex\tex\generic\infwarerr\infwarerr.sty
INPUT D:\Programs\MikTex\tex\latex\ellipsis\ellipsis.sty
INPUT D:\Programs\MikTex\tex\latex\ellipsis\ellipsis.sty
INPUT D:\Programs\MikTex\tex\latex\ellipsis\ellipsis.sty
INPUT D:\Programs\MikTex\tex\latex\ellipsis\ellipsis.sty
INPUT D:\Programs\MikTex\tex\latex\ellipsis\ellipsis.sty
INPUT D:\Programs\MikTex\tex\latex\ellipsis\ellipsis.sty
INPUT D:\Programs\MikTex\tex\latex\ellipsis\ellipsis.sty
INPUT D:\Programs\MikTex\tex\latex\ellipsis\ellipsis.sty
INPUT D:\Programs\MikTex\tex\latex\ellipsis\ellipsis.sty
INPUT D:\Programs\MikTex\tex\latex\ellipsis\ellipsis.sty
INPUT D:\Programs\MikTex\tex\latex\ellipsis\ellipsis.sty
INPUT D:\Programs\MikTex\tex\latex\latex-tools\xspace.sty
INPUT D:\Programs\MikTex\tex\latex\latex-tools\xspace.sty
INPUT D:\Programs\MikTex\tex\latex\latex-tools\xspace.sty
INPUT D:\Programs\MikTex\tex\latex\latex-tools\xspace.sty
INPUT D:\Programs\MikTex\tex\latex\latex-tools\xspace.sty
INPUT D:\Programs\MikTex\tex\latex\latex-tools\xspace.sty
INPUT D:\Programs\MikTex\tex\latex\latex-tools\xspace.sty
INPUT D:\Programs\MikTex\tex\latex\latex-tools\xspace.sty
INPUT D:\Programs\MikTex\tex\latex\latex-tools\xspace.sty
INPUT D:\Programs\MikTex\tex\latex\latex-tools\xspace.sty
INPUT D:\Programs\MikTex\tex\latex\latex-tools\xspace.sty
INPUT D:\Programs\MikTex\tex\latex\chngcntr\chngcntr.sty
INPUT D:\Programs\MikTex\tex\latex\lm\lmodern.sty
INPUT D:\Programs\MikTex\tex\latex\lm\lmodern.sty
INPUT D:\Programs\MikTex\tex\latex\lm\lmodern.sty
INPUT D:\Programs\MikTex\tex\latex\lm\lmodern.sty
INPUT D:\Programs\MikTex\tex\latex\lm\lmodern.sty
INPUT D:\Programs\MikTex\tex\latex\lm\lmodern.sty
INPUT D:\Programs\MikTex\tex\latex\lm\lmodern.sty
INPUT D:\Programs\MikTex\tex\latex\lm\lmodern.sty
INPUT D:\Programs\MikTex\tex\latex\lm\lmodern.sty
INPUT D:\Programs\MikTex\tex\latex\lm\lmodern.sty
INPUT D:\Programs\MikTex\tex\latex\lm\lmodern.sty
INPUT D:\Programs\MikTex\tex\latex\graphics\graphicx.sty
INPUT D:\Programs\MikTex\tex\latex\graphics\graphicx.sty
INPUT D:\Programs\MikTex\tex\latex\graphics\graphicx.sty
INPUT D:\Programs\MikTex\tex\latex\graphics\graphicx.sty
INPUT D:\Programs\MikTex\tex\latex\graphics\graphicx.sty
INPUT D:\Programs\MikTex\tex\latex\graphics\graphicx.sty
INPUT D:\Programs\MikTex\tex\latex\graphics\graphicx.sty
INPUT D:\Programs\MikTex\tex\latex\graphics\graphicx.sty
INPUT D:\Programs\MikTex\tex\latex\graphics\graphicx.sty
INPUT D:\Programs\MikTex\tex\latex\graphics\graphicx.sty
INPUT D:\Programs\MikTex\tex\latex\graphics\graphicx.sty
INPUT D:\Programs\MikTex\tex\latex\graphics\keyval.sty
INPUT D:\Programs\MikTex\tex\latex\graphics\graphics.sty
INPUT D:\Programs\MikTex\tex\latex\graphics\graphics.sty
INPUT D:\Programs\MikTex\tex\latex\graphics\graphics.sty
INPUT D:\Programs\MikTex\tex\latex\graphics\graphics.sty
INPUT D:\Programs\MikTex\tex\latex\graphics\graphics.sty
INPUT D:\Programs\MikTex\tex\latex\graphics\graphics.sty
INPUT D:\Programs\MikTex\tex\latex\graphics\graphics.sty
INPUT D:\Programs\MikTex\tex\latex\graphics\graphics.sty
INPUT D:\Programs\MikTex\tex\latex\graphics\graphics.sty
INPUT D:\Programs\MikTex\tex\latex\graphics\graphics.sty
INPUT D:\Programs\MikTex\tex\latex\graphics\graphics.sty
INPUT D:\Programs\MikTex\tex\latex\graphics\trig.sty
INPUT D:\Programs\MikTex\tex\latex\graphics\trig.sty
INPUT D:\Programs\MikTex\tex\latex\graphics\trig.sty
INPUT D:\Programs\MikTex\tex\latex\graphics\trig.sty
INPUT D:\Programs\MikTex\tex\latex\graphics\trig.sty
INPUT D:\Programs\MikTex\tex\latex\graphics\trig.sty
INPUT D:\Programs\MikTex\tex\latex\graphics\trig.sty
INPUT D:\Programs\MikTex\tex\latex\graphics\trig.sty
INPUT D:\Programs\MikTex\tex\latex\graphics\trig.sty
INPUT D:\Programs\MikTex\tex\latex\graphics\trig.sty
INPUT D:\Programs\MikTex\tex\latex\graphics\trig.sty
INPUT D:\Programs\MikTex\tex\latex\graphics-cfg\graphics.cfg
INPUT D:\Programs\MikTex\tex\latex\graphics-cfg\graphics.cfg
INPUT D:\Programs\MikTex\tex\latex\graphics-cfg\graphics.cfg
INPUT D:\Programs\MikTex\tex\latex\graphics-cfg\graphics.cfg
INPUT D:\Programs\MikTex\tex\latex\graphics-def\pdftex.def
INPUT D:\Programs\MikTex\tex\latex\graphics-def\pdftex.def
INPUT D:\Programs\MikTex\tex\latex\graphics-def\pdftex.def
INPUT D:\Programs\MikTex\tex\latex\graphics-def\pdftex.def
INPUT D:\Programs\MikTex\tex\latex\pdfpages\pdfpages.sty
INPUT D:\Programs\MikTex\tex\latex\pdfpages\pdfpages.sty
INPUT D:\Programs\MikTex\tex\latex\pdfpages\pdfpages.sty
INPUT D:\Programs\MikTex\tex\latex\pdfpages\pdfpages.sty
INPUT D:\Programs\MikTex\tex\latex\pdfpages\pdfpages.sty
INPUT D:\Programs\MikTex\tex\latex\pdfpages\pdfpages.sty
INPUT D:\Programs\MikTex\tex\latex\pdfpages\pdfpages.sty
INPUT D:\Programs\MikTex\tex\latex\pdfpages\pdfpages.sty
INPUT D:\Programs\MikTex\tex\latex\pdfpages\pdfpages.sty
INPUT D:\Programs\MikTex\tex\latex\pdfpages\pdfpages.sty
INPUT D:\Programs\MikTex\tex\latex\pdfpages\pdfpages.sty
INPUT D:\Programs\MikTex\tex\latex\base\ifthen.sty
INPUT D:\Programs\MikTex\tex\latex\base\ifthen.sty
INPUT D:\Programs\MikTex\tex\latex\base\ifthen.sty
INPUT D:\Programs\MikTex\tex\latex\base\ifthen.sty
INPUT D:\Programs\MikTex\tex\latex\base\ifthen.sty
INPUT D:\Programs\MikTex\tex\latex\base\ifthen.sty
INPUT D:\Programs\MikTex\tex\latex\base\ifthen.sty
INPUT D:\Programs\MikTex\tex\latex\base\ifthen.sty
INPUT D:\Programs\MikTex\tex\latex\base\ifthen.sty
INPUT D:\Programs\MikTex\tex\latex\base\ifthen.sty
INPUT D:\Programs\MikTex\tex\latex\base\ifthen.sty
INPUT D:\Programs\MikTex\tex\latex\latex-tools\calc.sty
INPUT D:\Programs\MikTex\tex\latex\latex-tools\calc.sty
INPUT D:\Programs\MikTex\tex\latex\latex-tools\calc.sty
INPUT D:\Programs\MikTex\tex\latex\latex-tools\calc.sty
INPUT D:\Programs\MikTex\tex\latex\latex-tools\calc.sty
INPUT D:\Programs\MikTex\tex\latex\latex-tools\calc.sty
INPUT D:\Programs\MikTex\tex\latex\latex-tools\calc.sty
INPUT D:\Programs\MikTex\tex\latex\latex-tools\calc.sty
INPUT D:\Programs\MikTex\tex\latex\latex-tools\calc.sty
INPUT D:\Programs\MikTex\tex\latex\latex-tools\calc.sty
INPUT D:\Programs\MikTex\tex\latex\latex-tools\calc.sty
INPUT D:\Programs\MikTex\tex\latex\eso-pic\eso-pic.sty
INPUT D:\Programs\MikTex\tex\latex\eso-pic\eso-pic.sty
INPUT D:\Programs\MikTex\tex\latex\eso-pic\eso-pic.sty
INPUT D:\Programs\MikTex\tex\latex\eso-pic\eso-pic.sty
INPUT D:\Programs\MikTex\tex\latex\eso-pic\eso-pic.sty
INPUT D:\Programs\MikTex\tex\latex\eso-pic\eso-pic.sty
INPUT D:\Programs\MikTex\tex\latex\eso-pic\eso-pic.sty
INPUT D:\Programs\MikTex\tex\latex\eso-pic\eso-pic.sty
INPUT D:\Programs\MikTex\tex\latex\eso-pic\eso-pic.sty
INPUT D:\Programs\MikTex\tex\latex\eso-pic\eso-pic.sty
INPUT D:\Programs\MikTex\tex\latex\eso-pic\eso-pic.sty
INPUT D:\Programs\MikTex\tex\latex\graphics\keyval.sty
INPUT D:\Programs\MikTex\tex\latex\xcolor\xcolor.sty
INPUT D:\Programs\MikTex\tex\latex\xcolor\xcolor.sty
INPUT D:\Programs\MikTex\tex\latex\xcolor\xcolor.sty
INPUT D:\Programs\MikTex\tex\latex\xcolor\xcolor.sty
INPUT D:\Programs\MikTex\tex\latex\xcolor\xcolor.sty
INPUT D:\Programs\MikTex\tex\latex\xcolor\xcolor.sty
INPUT D:\Programs\MikTex\tex\latex\xcolor\xcolor.sty
INPUT D:\Programs\MikTex\tex\latex\xcolor\xcolor.sty
INPUT D:\Programs\MikTex\tex\latex\xcolor\xcolor.sty
INPUT D:\Programs\MikTex\tex\latex\xcolor\xcolor.sty
INPUT D:\Programs\MikTex\tex\latex\xcolor\xcolor.sty
INPUT D:\Programs\MikTex\tex\latex\xcolor\xcolor.sty
INPUT D:\Programs\MikTex\tex\latex\xcolor\xcolor.sty
INPUT D:\Programs\MikTex\tex\latex\graphics-cfg\color.cfg
INPUT D:\Programs\MikTex\tex\latex\graphics-cfg\color.cfg
INPUT D:\Programs\MikTex\tex\latex\graphics-cfg\color.cfg
INPUT D:\Programs\MikTex\tex\latex\graphics-cfg\color.cfg
INPUT D:\Programs\MikTex\tex\latex\graphics\graphicx.sty
INPUT D:\Programs\MikTex\tex\latex\pdfpages\pppdftex.def
INPUT D:\Programs\MikTex\tex\latex\pdfpages\pppdftex.def
INPUT D:\Programs\MikTex\tex\latex\pdfpages\pppdftex.def
INPUT D:\Programs\MikTex\tex\latex\pdfpages\pppdftex.def
INPUT D:\Programs\MikTex\tex\latex\etoolbox\etoolbox.sty
INPUT D:\Programs\MikTex\tex\latex\etoolbox\etoolbox.sty
INPUT D:\Programs\MikTex\tex\latex\etoolbox\etoolbox.sty
INPUT D:\Programs\MikTex\tex\latex\etoolbox\etoolbox.sty
INPUT D:\Programs\MikTex\tex\latex\etoolbox\etoolbox.sty
INPUT D:\Programs\MikTex\tex\latex\etoolbox\etoolbox.sty
INPUT D:\Programs\MikTex\tex\latex\etoolbox\etoolbox.sty
INPUT D:\Programs\MikTex\tex\latex\etoolbox\etoolbox.sty
INPUT D:\Programs\MikTex\tex\latex\etoolbox\etoolbox.sty
INPUT D:\Programs\MikTex\tex\latex\etoolbox\etoolbox.sty
INPUT D:\Programs\MikTex\tex\latex\etoolbox\etoolbox.sty
INPUT D:\Programs\MikTex\tex\latex\base\inputenc.sty
INPUT D:\Programs\MikTex\tex\latex\base\inputenc.sty
INPUT D:\Programs\MikTex\tex\latex\base\inputenc.sty
INPUT D:\Programs\MikTex\tex\latex\base\inputenc.sty
INPUT D:\Programs\MikTex\tex\latex\base\inputenc.sty
INPUT D:\Programs\MikTex\tex\latex\base\inputenc.sty
INPUT D:\Programs\MikTex\tex\latex\base\inputenc.sty
INPUT D:\Programs\MikTex\tex\latex\base\inputenc.sty
INPUT D:\Programs\MikTex\tex\latex\base\inputenc.sty
INPUT D:\Programs\MikTex\tex\latex\base\inputenc.sty
INPUT D:\Programs\MikTex\tex\latex\base\inputenc.sty
INPUT D:\Programs\MikTex\tex\latex\dirtree\dirtree.sty
INPUT D:\Programs\MikTex\tex\latex\dirtree\dirtree.sty
INPUT D:\Programs\MikTex\tex\latex\dirtree\dirtree.sty
INPUT D:\Programs\MikTex\tex\latex\dirtree\dirtree.sty
INPUT D:\Programs\MikTex\tex\latex\dirtree\dirtree.sty
INPUT D:\Programs\MikTex\tex\latex\dirtree\dirtree.sty
INPUT D:\Programs\MikTex\tex\latex\dirtree\dirtree.sty
INPUT D:\Programs\MikTex\tex\latex\dirtree\dirtree.sty
INPUT D:\Programs\MikTex\tex\latex\dirtree\dirtree.sty
INPUT D:\Programs\MikTex\tex\latex\dirtree\dirtree.sty
INPUT D:\Programs\MikTex\tex\latex\dirtree\dirtree.sty
INPUT D:\Programs\MikTex\tex\generic\dirtree\dirtree.tex
INPUT D:\Programs\MikTex\tex\generic\dirtree\dirtree.tex
INPUT D:\Programs\MikTex\tex\generic\dirtree\dirtree.tex
INPUT D:\Programs\MikTex\tex\generic\dirtree\dirtree.tex
INPUT D:\Programs\MikTex\tex\latex\notoccite\notoccite.sty
INPUT D:\Programs\MikTex\tex\latex\notoccite\notoccite.sty
INPUT D:\Programs\MikTex\tex\latex\notoccite\notoccite.sty
INPUT D:\Programs\MikTex\tex\latex\notoccite\notoccite.sty
INPUT D:\Programs\MikTex\tex\latex\notoccite\notoccite.sty
INPUT D:\Programs\MikTex\tex\latex\notoccite\notoccite.sty
INPUT D:\Programs\MikTex\tex\latex\notoccite\notoccite.sty
INPUT D:\Programs\MikTex\tex\latex\notoccite\notoccite.sty
INPUT D:\Programs\MikTex\tex\latex\notoccite\notoccite.sty
INPUT D:\Programs\MikTex\tex\latex\notoccite\notoccite.sty
INPUT D:\Programs\MikTex\tex\latex\notoccite\notoccite.sty
INPUT D:\Programs\MikTex\tex\latex\placeins\placeins.sty
INPUT D:\Programs\MikTex\tex\latex\placeins\placeins.sty
INPUT D:\Programs\MikTex\tex\latex\placeins\placeins.sty
INPUT D:\Programs\MikTex\tex\latex\placeins\placeins.sty
INPUT D:\Programs\MikTex\tex\latex\placeins\placeins.sty
INPUT D:\Programs\MikTex\tex\latex\placeins\placeins.sty
INPUT D:\Programs\MikTex\tex\latex\placeins\placeins.sty
INPUT D:\Programs\MikTex\tex\latex\placeins\placeins.sty
INPUT D:\Programs\MikTex\tex\latex\placeins\placeins.sty
INPUT D:\Programs\MikTex\tex\latex\placeins\placeins.sty
INPUT D:\Programs\MikTex\tex\latex\placeins\placeins.sty
INPUT D:\Programs\MikTex\tex\latex\listings\listings.sty
INPUT D:\Programs\MikTex\tex\latex\listings\listings.sty
INPUT D:\Programs\MikTex\tex\latex\listings\listings.sty
INPUT D:\Programs\MikTex\tex\latex\listings\listings.sty
INPUT D:\Programs\MikTex\tex\latex\listings\listings.sty
INPUT D:\Programs\MikTex\tex\latex\listings\listings.sty
INPUT D:\Programs\MikTex\tex\latex\listings\listings.sty
INPUT D:\Programs\MikTex\tex\latex\listings\listings.sty
INPUT D:\Programs\MikTex\tex\latex\listings\listings.sty
INPUT D:\Programs\MikTex\tex\latex\listings\listings.sty
INPUT D:\Programs\MikTex\tex\latex\listings\listings.sty
INPUT D:\Programs\MikTex\tex\latex\graphics\keyval.sty
INPUT D:\Programs\MikTex\tex\latex\listings\lstmisc.sty
INPUT D:\Programs\MikTex\tex\latex\listings\lstmisc.sty
INPUT D:\Programs\MikTex\tex\latex\listings\lstmisc.sty
INPUT D:\Programs\MikTex\tex\latex\listings\lstmisc.sty
INPUT D:\Programs\MikTex\tex\latex\listings\listings.cfg
INPUT D:\Programs\MikTex\tex\latex\listings\listings.cfg
INPUT D:\Programs\MikTex\tex\latex\listings\listings.cfg
INPUT D:\Programs\MikTex\tex\latex\listings\listings.cfg
INPUT D:\Programs\MikTex\tex\latex\graphics\color.sty
INPUT D:\Programs\MikTex\tex\latex\listings\lstlang1.sty
INPUT D:\Programs\MikTex\tex\latex\listings\lstlang1.sty
INPUT D:\Programs\MikTex\tex\latex\listings\lstlang1.sty
INPUT D:\Programs\MikTex\tex\latex\listings\lstlang1.sty
INPUT D:\Programs\MikTex\tex\latex\lm\ot1lmr.fd
INPUT D:\Programs\MikTex\tex\latex\lm\ot1lmr.fd
INPUT D:\Programs\MikTex\tex\latex\lm\ot1lmr.fd
INPUT D:\Programs\MikTex\tex\latex\lm\ot1lmr.fd
INPUT D:\Programs\MikTex\fonts\tfm\public\lm\rm-lmr10.tfm
INPUT D:\Programs\MikTex\tex\latex\l3backend\l3backend-pdftex.def
INPUT D:\Programs\MikTex\tex\latex\l3backend\l3backend-pdftex.def
INPUT D:\Programs\MikTex\tex\latex\l3backend\l3backend-pdftex.def
INPUT D:\Programs\MikTex\tex\latex\l3backend\l3backend-pdftex.def
INPUT D:\Programs\MikTex\tex\latex\l3backend\l3backend-pdftex.def
INPUT D:\Programs\MikTex\tex\latex\l3backend\l3backend-pdftex.def
INPUT D:\Programs\MikTex\tex\latex\l3backend\l3backend-pdftex.def
INPUT D:\Programs\MikTex\tex\latex\l3backend\l3backend-pdftex.def
INPUT D:\Programs\MikTex\tex\latex\l3backend\l3backend-pdftex.def
INPUT D:\Programs\MikTex\tex\latex\l3backend\l3backend-pdftex.def
INPUT D:\Programs\MikTex\tex\latex\l3backend\l3backend-pdftex.def
INPUT d:\BAKALAR\bp\text\BP_Marek_Klofac_2020.aux
INPUT d:\BAKALAR\bp\text\BP_Marek_Klofac_2020.aux
INPUT d:\BAKALAR\bp\text\BP_Marek_Klofac_2020.aux
OUTPUT d:\BAKALAR\bp\text\BP_Marek_Klofac_2020.aux
INPUT D:\Programs\MikTex\tex\latex\hyperref\nameref.sty
INPUT D:\Programs\MikTex\tex\latex\hyperref\nameref.sty
INPUT D:\Programs\MikTex\tex\latex\hyperref\nameref.sty
INPUT D:\Programs\MikTex\tex\latex\hyperref\nameref.sty
INPUT D:\Programs\MikTex\tex\latex\hyperref\nameref.sty
INPUT D:\Programs\MikTex\tex\latex\hyperref\nameref.sty
INPUT D:\Programs\MikTex\tex\latex\hyperref\nameref.sty
INPUT D:\Programs\MikTex\tex\latex\hyperref\nameref.sty
INPUT D:\Programs\MikTex\tex\latex\hyperref\nameref.sty
INPUT D:\Programs\MikTex\tex\latex\hyperref\nameref.sty
INPUT D:\Programs\MikTex\tex\latex\hyperref\nameref.sty
INPUT D:\Programs\MikTex\tex\latex\refcount\refcount.sty
INPUT D:\Programs\MikTex\tex\latex\refcount\refcount.sty
INPUT D:\Programs\MikTex\tex\latex\refcount\refcount.sty
INPUT D:\Programs\MikTex\tex\latex\refcount\refcount.sty
INPUT D:\Programs\MikTex\tex\latex\refcount\refcount.sty
INPUT D:\Programs\MikTex\tex\latex\refcount\refcount.sty
INPUT D:\Programs\MikTex\tex\latex\refcount\refcount.sty
INPUT D:\Programs\MikTex\tex\latex\refcount\refcount.sty
INPUT D:\Programs\MikTex\tex\latex\refcount\refcount.sty
INPUT D:\Programs\MikTex\tex\latex\refcount\refcount.sty
INPUT D:\Programs\MikTex\tex\latex\refcount\refcount.sty
INPUT D:\Programs\MikTex\tex\generic\ltxcmds\ltxcmds.sty
INPUT D:\Programs\MikTex\tex\generic\infwarerr\infwarerr.sty
INPUT D:\Programs\MikTex\tex\generic\gettitlestring\gettitlestring.sty
INPUT D:\Programs\MikTex\tex\generic\gettitlestring\gettitlestring.sty
INPUT D:\Programs\MikTex\tex\generic\gettitlestring\gettitlestring.sty
INPUT D:\Programs\MikTex\tex\generic\gettitlestring\gettitlestring.sty
INPUT D:\Programs\MikTex\tex\generic\gettitlestring\gettitlestring.sty
INPUT D:\Programs\MikTex\tex\generic\gettitlestring\gettitlestring.sty
INPUT D:\Programs\MikTex\tex\generic\gettitlestring\gettitlestring.sty
INPUT D:\Programs\MikTex\tex\generic\gettitlestring\gettitlestring.sty
INPUT D:\Programs\MikTex\tex\generic\gettitlestring\gettitlestring.sty
INPUT D:\Programs\MikTex\tex\generic\gettitlestring\gettitlestring.sty
INPUT D:\Programs\MikTex\tex\generic\gettitlestring\gettitlestring.sty
INPUT D:\Programs\MikTex\tex\latex\kvoptions\kvoptions.sty
INPUT D:\Programs\MikTex\tex\generic\ltxcmds\ltxcmds.sty
INPUT d:\BAKALAR\bp\text\BP_Marek_Klofac_2020.out
INPUT d:\BAKALAR\bp\text\BP_Marek_Klofac_2020.out
INPUT d:\BAKALAR\bp\text\BP_Marek_Klofac_2020.out
INPUT d:\BAKALAR\bp\text\BP_Marek_Klofac_2020.out
INPUT d:\BAKALAR\bp\text\BP_Marek_Klofac_2020.out
INPUT d:\BAKALAR\bp\text\BP_Marek_Klofac_2020.out
INPUT d:\BAKALAR\bp\text\BP_Marek_Klofac_2020.out
INPUT d:\BAKALAR\bp\text\BP_Marek_Klofac_2020.out
OUTPUT d:\BAKALAR\bp\text\BP_Marek_Klofac_2020.pdf
INPUT d:\BAKALAR\bp\text\BP_Marek_Klofac_2020.out
INPUT d:\BAKALAR\bp\text\BP_Marek_Klofac_2020.out
OUTPUT d:\BAKALAR\bp\text\BP_Marek_Klofac_2020.out
INPUT D:\Programs\MikTex\tex\context\base\mkii\supp-pdf.mkii
INPUT D:\Programs\MikTex\tex\context\base\mkii\supp-pdf.mkii
INPUT D:\Programs\MikTex\tex\context\base\mkii\supp-pdf.mkii
INPUT D:\Programs\MikTex\tex\context\base\mkii\supp-pdf.mkii
INPUT D:\Programs\MikTex\tex\latex\epstopdf-pkg\epstopdf-base.sty
INPUT D:\Programs\MikTex\tex\latex\epstopdf-pkg\epstopdf-base.sty
INPUT D:\Programs\MikTex\tex\latex\epstopdf-pkg\epstopdf-base.sty
INPUT D:\Programs\MikTex\tex\latex\epstopdf-pkg\epstopdf-base.sty
INPUT D:\Programs\MikTex\tex\latex\epstopdf-pkg\epstopdf-base.sty
INPUT D:\Programs\MikTex\tex\latex\epstopdf-pkg\epstopdf-base.sty
INPUT D:\Programs\MikTex\tex\latex\epstopdf-pkg\epstopdf-base.sty
INPUT D:\Programs\MikTex\tex\latex\epstopdf-pkg\epstopdf-base.sty
INPUT D:\Programs\MikTex\tex\latex\epstopdf-pkg\epstopdf-base.sty
INPUT D:\Programs\MikTex\tex\latex\epstopdf-pkg\epstopdf-base.sty
INPUT D:\Programs\MikTex\tex\latex\epstopdf-pkg\epstopdf-base.sty
INPUT D:\Programs\MikTex\tex\latex\pdflscape\pdflscape.sty
INPUT D:\Programs\MikTex\tex\latex\pdflscape\pdflscape.sty
INPUT D:\Programs\MikTex\tex\latex\pdflscape\pdflscape.sty
INPUT D:\Programs\MikTex\tex\latex\pdflscape\pdflscape.sty
INPUT D:\Programs\MikTex\tex\latex\pdflscape\pdflscape.sty
INPUT D:\Programs\MikTex\tex\latex\pdflscape\pdflscape.sty
INPUT D:\Programs\MikTex\tex\latex\pdflscape\pdflscape.sty
INPUT D:\Programs\MikTex\tex\latex\pdflscape\pdflscape.sty
INPUT D:\Programs\MikTex\tex\latex\pdflscape\pdflscape.sty
INPUT D:\Programs\MikTex\tex\latex\pdflscape\pdflscape.sty
INPUT D:\Programs\MikTex\tex\latex\pdflscape\pdflscape.sty
INPUT D:\Programs\MikTex\tex\generic\iftex\iftex.sty
INPUT D:\Programs\MikTex\tex\latex\graphics\lscape.sty
INPUT D:\Programs\MikTex\tex\latex\graphics\lscape.sty
INPUT D:\Programs\MikTex\tex\latex\graphics\lscape.sty
INPUT D:\Programs\MikTex\tex\latex\graphics\lscape.sty
INPUT D:\Programs\MikTex\tex\latex\graphics\lscape.sty
INPUT D:\Programs\MikTex\tex\latex\graphics\lscape.sty
INPUT D:\Programs\MikTex\tex\latex\graphics\lscape.sty
INPUT D:\Programs\MikTex\tex\latex\graphics\lscape.sty
INPUT D:\Programs\MikTex\tex\latex\graphics\lscape.sty
INPUT D:\Programs\MikTex\tex\latex\graphics\lscape.sty
INPUT D:\Programs\MikTex\tex\latex\graphics\lscape.sty
INPUT D:\Programs\MikTex\tex\latex\graphics\graphics.sty
INPUT d:\BAKALAR\bp\text\assignment.pdf
INPUT d:\BAKALAR\bp\text\assignment.pdf
INPUT d:\BAKALAR\bp\text\assignment.pdf
INPUT d:\BAKALAR\bp\text\assignment.pdf
INPUT d:\BAKALAR\bp\text\assignment.pdf
INPUT d:\BAKALAR\bp\text\assignment.pdf
INPUT d:\BAKALAR\bp\text\assignment.pdf
INPUT d:\BAKALAR\bp\text\assignment.pdf
INPUT d:\BAKALAR\bp\text\assignment.pdf
INPUT d:\BAKALAR\bp\text\assignment.pdf
INPUT d:\BAKALAR\bp\text\assignment.pdf
INPUT d:\BAKALAR\bp\text\assignment.pdf
INPUT d:\BAKALAR\bp\text\assignment.pdf
INPUT d:\BAKALAR\bp\text\assignment.pdf
INPUT d:\BAKALAR\bp\text\assignment.pdf
INPUT d:\BAKALAR\bp\text\assignment.pdf
INPUT d:\BAKALAR\bp\text\assignment.pdf
INPUT d:\BAKALAR\bp\text\assignment.pdf
INPUT d:\BAKALAR\bp\text\assignment.pdf
INPUT d:\BAKALAR\bp\text\assignment.pdf
INPUT d:\BAKALAR\bp\text\assignment.pdf
INPUT d:\BAKALAR\bp\text\assignment.pdf
INPUT d:\BAKALAR\bp\text\assignment.pdf
INPUT d:\BAKALAR\bp\text\assignment.pdf
INPUT d:\BAKALAR\bp\text\assignment.pdf
INPUT d:\BAKALAR\bp\text\assignment.pdf
INPUT d:\BAKALAR\bp\text\assignment.pdf
INPUT d:\BAKALAR\bp\text\assignment.pdf
INPUT d:\BAKALAR\bp\text\assignment.pdf
INPUT d:\BAKALAR\bp\text\assignment.pdf
INPUT d:\BAKALAR\bp\text\assignment.pdf
INPUT d:\BAKALAR\bp\text\assignment.pdf
INPUT d:\BAKALAR\bp\text\assignment.pdf
INPUT d:\BAKALAR\bp\text\assignment.pdf
INPUT d:\BAKALAR\bp\text\cvut-logo-bw.pdf
INPUT d:\BAKALAR\bp\text\cvut-logo-bw.pdf
INPUT d:\BAKALAR\bp\text\cvut-logo-bw.pdf
INPUT d:\BAKALAR\bp\text\cvut-logo-bw.pdf
INPUT d:\BAKALAR\bp\text\cvut-logo-bw.pdf
INPUT D:\Programs\MikTex\fonts\tfm\public\lm\rm-lmr12.tfm
INPUT D:\Programs\MikTex\fonts\tfm\public\lm\rm-lmbx10.tfm
INPUT D:\Programs\MikTex\fonts\tfm\public\lm\rm-lmbx12.tfm
INPUT D:\Programs\MikTex\fonts\tfm\public\lm\rm-lmbx12.tfm
INPUT D:\Programs\MikTex\fonts\tfm\public\lm\rm-lmbxi10.tfm
INPUT C:\Users\marak\AppData\Local\MiKTeX\pdftex\config\pdftex.map
INPUT D:\Programs\MikTex\fonts\tfm\public\lm\rm-lmcsc10.tfm
INPUT D:\Programs\MikTex\tex\latex\lm\ot1lmss.fd
INPUT D:\Programs\MikTex\tex\latex\lm\ot1lmss.fd
INPUT D:\Programs\MikTex\tex\latex\lm\ot1lmss.fd
INPUT D:\Programs\MikTex\tex\latex\lm\ot1lmss.fd
INPUT D:\Programs\MikTex\fonts\tfm\public\lm\rm-lmssbx10.tfm
INPUT D:\Programs\MikTex\fonts\tfm\public\lm\rm-lmr17.tfm
INPUT D:\Programs\MikTex\fonts\tfm\public\lm\rm-lmbx12.tfm
INPUT D:\Programs\MikTex\fonts\tfm\public\lm\rm-lmssbx10.tfm
INPUT d:\BAKALAR\bp\text\prohlaseni4.tex.txt
INPUT d:\BAKALAR\bp\text\prohlaseni4.tex.txt
INPUT d:\BAKALAR\bp\text\prohlaseni4.tex.txt
INPUT d:\BAKALAR\bp\text\prohlaseni4.tex.txt
INPUT D:\Programs\MikTex\tex\latex\lm\ts1lmr.fd
INPUT D:\Programs\MikTex\tex\latex\lm\ts1lmr.fd
INPUT D:\Programs\MikTex\tex\latex\lm\ts1lmr.fd
INPUT D:\Programs\MikTex\tex\latex\lm\ts1lmr.fd
INPUT D:\Programs\MikTex\fonts\tfm\public\lm\ts1-lmr10.tfm
INPUT D:\Programs\MikTex\fonts\tfm\public\lm\rm-lmri10.tfm
INPUT D:\Programs\MikTex\fonts\tfm\public\lm\rm-lmr12.tfm
INPUT D:\Programs\MikTex\fonts\tfm\public\lm\rm-lmbx12.tfm
INPUT d:\BAKALAR\bp\text\BP_Marek_Klofac_2020.toc
INPUT d:\BAKALAR\bp\text\BP_Marek_Klofac_2020.toc
INPUT d:\BAKALAR\bp\text\BP_Marek_Klofac_2020.toc
INPUT D:\Programs\MikTex\fonts\tfm\public\lm\rm-lmr8.tfm
INPUT D:\Programs\MikTex\fonts\tfm\public\lm\rm-lmr6.tfm
INPUT D:\Programs\MikTex\tex\latex\lm\omllmm.fd
INPUT D:\Programs\MikTex\tex\latex\lm\omllmm.fd
INPUT D:\Programs\MikTex\tex\latex\lm\omllmm.fd
INPUT D:\Programs\MikTex\tex\latex\lm\omllmm.fd
INPUT D:\Programs\MikTex\fonts\tfm\public\lm\lmmi10.tfm
INPUT D:\Programs\MikTex\fonts\tfm\public\lm\lmmi8.tfm
INPUT D:\Programs\MikTex\fonts\tfm\public\lm\lmmi6.tfm
INPUT D:\Programs\MikTex\tex\latex\lm\omslmsy.fd
INPUT D:\Programs\MikTex\tex\latex\lm\omslmsy.fd
INPUT D:\Programs\MikTex\tex\latex\lm\omslmsy.fd
INPUT D:\Programs\MikTex\tex\latex\lm\omslmsy.fd
INPUT D:\Programs\MikTex\fonts\tfm\public\lm\lmsy10.tfm
INPUT D:\Programs\MikTex\fonts\tfm\public\lm\lmsy8.tfm
INPUT D:\Programs\MikTex\fonts\tfm\public\lm\lmsy6.tfm
INPUT D:\Programs\MikTex\tex\latex\lm\omxlmex.fd
INPUT D:\Programs\MikTex\tex\latex\lm\omxlmex.fd
INPUT D:\Programs\MikTex\tex\latex\lm\omxlmex.fd
INPUT D:\Programs\MikTex\tex\latex\lm\omxlmex.fd
INPUT D:\Programs\MikTex\fonts\tfm\public\lm\lmex10.tfm
OUTPUT d:\BAKALAR\bp\text\BP_Marek_Klofac_2020.toc
INPUT d:\BAKALAR\bp\text\BP_Marek_Klofac_2020.lof
INPUT d:\BAKALAR\bp\text\BP_Marek_Klofac_2020.lof
INPUT d:\BAKALAR\bp\text\BP_Marek_Klofac_2020.lof
OUTPUT d:\BAKALAR\bp\text\BP_Marek_Klofac_2020.lof
INPUT D:\Programs\MikTex\fonts\tfm\public\lm\rm-lmr9.tfm
INPUT D:\Programs\MikTex\fonts\tfm\public\lm\rm-lmr5.tfm
INPUT D:\Programs\MikTex\fonts\tfm\public\lm\lmmi9.tfm
INPUT D:\Programs\MikTex\fonts\tfm\public\lm\lmmi5.tfm
INPUT D:\Programs\MikTex\fonts\tfm\public\lm\lmsy9.tfm
INPUT D:\Programs\MikTex\fonts\tfm\public\lm\lmsy5.tfm
INPUT D:\Programs\MikTex\fonts\tfm\public\lm\rm-lmri9.tfm
INPUT D:\Programs\MikTex\fonts\tfm\public\lm\rm-lmcsc10.tfm
INPUT D:\Programs\MikTex\fonts\tfm\public\lm\rm-lmbxi10.tfm
INPUT d:\BAKALAR\bp\text\images\vancura_navrh.png
INPUT d:\BAKALAR\bp\text\images\vancura_navrh.png
INPUT d:\BAKALAR\bp\text\images\vancura_navrh.png
INPUT d:\BAKALAR\bp\text\images\vancura_navrh.png
INPUT d:\BAKALAR\bp\text\images\vancura_navrh.png
INPUT d:\BAKALAR\bp\text\images\vancura_navrh.png
INPUT d:\BAKALAR\bp\text\images\vancura_navrh.png
INPUT d:\BAKALAR\bp\text\images\sivak_navrh.png
INPUT d:\BAKALAR\bp\text\images\sivak_navrh.png
INPUT d:\BAKALAR\bp\text\images\sivak_navrh.png
INPUT d:\BAKALAR\bp\text\images\sivak_navrh.png
INPUT d:\BAKALAR\bp\text\images\sivak_navrh.png
INPUT d:\BAKALAR\bp\text\images\sivak_navrh.png
INPUT d:\BAKALAR\bp\text\images\sivak_navrh.png
INPUT d:\BAKALAR\bp\text\images\proces1.PNG
INPUT d:\BAKALAR\bp\text\images\proces1.PNG
INPUT d:\BAKALAR\bp\text\images\proces1.PNG
INPUT d:\BAKALAR\bp\text\images\proces1.PNG
INPUT d:\BAKALAR\bp\text\images\proces1.PNG
INPUT d:\BAKALAR\bp\text\images\proces1.PNG
INPUT d:\BAKALAR\bp\text\images\proces1.PNG
INPUT d:\BAKALAR\bp\text\images\proces2.PNG
INPUT d:\BAKALAR\bp\text\images\proces2.PNG
INPUT d:\BAKALAR\bp\text\images\proces2.PNG
INPUT d:\BAKALAR\bp\text\images\proces2.PNG
INPUT d:\BAKALAR\bp\text\images\proces2.PNG
INPUT d:\BAKALAR\bp\text\images\proces2.PNG
INPUT d:\BAKALAR\bp\text\images\proces2.PNG
INPUT d:\BAKALAR\bp\text\images\proces3.PNG
INPUT d:\BAKALAR\bp\text\images\proces3.PNG
INPUT d:\BAKALAR\bp\text\images\proces3.PNG
INPUT d:\BAKALAR\bp\text\images\proces3.PNG
INPUT d:\BAKALAR\bp\text\images\proces3.PNG
INPUT d:\BAKALAR\bp\text\images\proces3.PNG
INPUT d:\BAKALAR\bp\text\images\proces3.PNG
INPUT d:\BAKALAR\bp\text\images\mytskabrana.PNG
INPUT d:\BAKALAR\bp\text\images\mytskabrana.PNG
INPUT d:\BAKALAR\bp\text\images\mytskabrana.PNG
INPUT d:\BAKALAR\bp\text\images\mytskabrana.PNG
INPUT d:\BAKALAR\bp\text\images\mytskabrana.PNG
INPUT d:\BAKALAR\bp\text\images\mytskabrana.PNG
INPUT d:\BAKALAR\bp\text\images\mytskabrana.PNG
INPUT d:\BAKALAR\bp\text\images\proces4.PNG
INPUT d:\BAKALAR\bp\text\images\proces4.PNG
INPUT d:\BAKALAR\bp\text\images\proces4.PNG
INPUT d:\BAKALAR\bp\text\images\proces4.PNG
INPUT d:\BAKALAR\bp\text\images\proces4.PNG
INPUT d:\BAKALAR\bp\text\images\proces4.PNG
INPUT d:\BAKALAR\bp\text\images\proces4.PNG
INPUT d:\BAKALAR\bp\text\images\sivak_stavy.PNG
INPUT d:\BAKALAR\bp\text\images\sivak_stavy.PNG
INPUT d:\BAKALAR\bp\text\images\sivak_stavy.PNG
INPUT d:\BAKALAR\bp\text\images\sivak_stavy.PNG
INPUT d:\BAKALAR\bp\text\images\sivak_stavy.PNG
INPUT d:\BAKALAR\bp\text\images\sivak_stavy.PNG
INPUT d:\BAKALAR\bp\text\images\sivak_stavy.PNG
INPUT d:\BAKALAR\bp\text\images\htcvivecontrollers.PNG
INPUT d:\BAKALAR\bp\text\images\htcvivecontrollers.PNG
INPUT d:\BAKALAR\bp\text\images\htcvivecontrollers.PNG
INPUT d:\BAKALAR\bp\text\images\htcvivecontrollers.PNG
INPUT d:\BAKALAR\bp\text\images\htcvivecontrollers.PNG
INPUT d:\BAKALAR\bp\text\images\htcvivecontrollers.PNG
INPUT d:\BAKALAR\bp\text\images\htcvivecontrollers.PNG
INPUT d:\BAKALAR\bp\text\images\htc_vive_setup.jpg
INPUT d:\BAKALAR\bp\text\images\htc_vive_setup.jpg
INPUT d:\BAKALAR\bp\text\images\htc_vive_setup.jpg
INPUT d:\BAKALAR\bp\text\images\htc_vive_setup.jpg
INPUT d:\BAKALAR\bp\text\images\htc_vive_setup.jpg
INPUT d:\BAKALAR\bp\text\images\htc_vive_setup.jpg
INPUT d:\BAKALAR\bp\text\images\htc_vive_setup.jpg
INPUT d:\BAKALAR\bp\text\images\htcvivechaperone.jpg
INPUT d:\BAKALAR\bp\text\images\htcvivechaperone.jpg
INPUT d:\BAKALAR\bp\text\images\htcvivechaperone.jpg
INPUT d:\BAKALAR\bp\text\images\htcvivechaperone.jpg
INPUT d:\BAKALAR\bp\text\images\htcvivechaperone.jpg
INPUT d:\BAKALAR\bp\text\images\htcvivechaperone.jpg
INPUT d:\BAKALAR\bp\text\images\htcvivechaperone.jpg
INPUT D:\Programs\MikTex\fonts\tfm\public\lm\rm-lmr10.tfm
INPUT D:\Programs\MikTex\tex\latex\lm\ot1lmtt.fd
INPUT D:\Programs\MikTex\tex\latex\lm\ot1lmtt.fd
INPUT D:\Programs\MikTex\tex\latex\lm\ot1lmtt.fd
INPUT D:\Programs\MikTex\tex\latex\lm\ot1lmtt.fd
INPUT D:\Programs\MikTex\fonts\tfm\public\lm\rm-lmtt10.tfm
INPUT d:\BAKALAR\bp\text\images\monobehaviour_flowchart.PNG
INPUT d:\BAKALAR\bp\text\images\monobehaviour_flowchart.PNG
INPUT d:\BAKALAR\bp\text\images\monobehaviour_flowchart.PNG
INPUT d:\BAKALAR\bp\text\images\monobehaviour_flowchart.PNG
INPUT d:\BAKALAR\bp\text\images\monobehaviour_flowchart.PNG
INPUT d:\BAKALAR\bp\text\images\monobehaviour_flowchart.PNG
INPUT d:\BAKALAR\bp\text\images\monobehaviour_flowchart.PNG
INPUT d:\BAKALAR\bp\text\images\oauth2_diagram.PNG
INPUT d:\BAKALAR\bp\text\images\oauth2_diagram.PNG
INPUT d:\BAKALAR\bp\text\images\oauth2_diagram.PNG
INPUT d:\BAKALAR\bp\text\images\oauth2_diagram.PNG
INPUT d:\BAKALAR\bp\text\images\oauth2_diagram.PNG
INPUT d:\BAKALAR\bp\text\images\oauth2_diagram.PNG
INPUT d:\BAKALAR\bp\text\images\oauth2_diagram.PNG
INPUT d:\BAKALAR\bp\text\images\launcher1.PNG
INPUT d:\BAKALAR\bp\text\images\launcher1.PNG
INPUT d:\BAKALAR\bp\text\images\launcher1.PNG
INPUT d:\BAKALAR\bp\text\images\launcher1.PNG
INPUT d:\BAKALAR\bp\text\images\launcher1.PNG
INPUT d:\BAKALAR\bp\text\images\launcher1.PNG
INPUT d:\BAKALAR\bp\text\images\launcher1.PNG
INPUT d:\BAKALAR\bp\text\images\launcher2.PNG
INPUT d:\BAKALAR\bp\text\images\launcher2.PNG
INPUT d:\BAKALAR\bp\text\images\launcher2.PNG
INPUT d:\BAKALAR\bp\text\images\launcher2.PNG
INPUT d:\BAKALAR\bp\text\images\launcher2.PNG
INPUT d:\BAKALAR\bp\text\images\launcher2.PNG
INPUT d:\BAKALAR\bp\text\images\launcher2.PNG
INPUT d:\BAKALAR\bp\text\images\inverseKinematics.jpg
INPUT d:\BAKALAR\bp\text\images\inverseKinematics.jpg
INPUT d:\BAKALAR\bp\text\images\inverseKinematics.jpg
INPUT d:\BAKALAR\bp\text\images\inverseKinematics.jpg
INPUT d:\BAKALAR\bp\text\images\inverseKinematics.jpg
INPUT d:\BAKALAR\bp\text\images\inverseKinematics.jpg
INPUT d:\BAKALAR\bp\text\images\inverseKinematics.jpg
INPUT d:\BAKALAR\bp\text\images\allStructures.PNG
INPUT d:\BAKALAR\bp\text\images\allStructures.PNG
INPUT d:\BAKALAR\bp\text\images\allStructures.PNG
INPUT d:\BAKALAR\bp\text\images\allStructures.PNG
INPUT d:\BAKALAR\bp\text\images\allStructures.PNG
INPUT d:\BAKALAR\bp\text\images\allStructures.PNG
INPUT d:\BAKALAR\bp\text\images\allStructures.PNG
INPUT d:\BAKALAR\bp\text\images\structureDetail.PNG
INPUT d:\BAKALAR\bp\text\images\structureDetail.PNG
INPUT d:\BAKALAR\bp\text\images\structureDetail.PNG
INPUT d:\BAKALAR\bp\text\images\structureDetail.PNG
INPUT d:\BAKALAR\bp\text\images\structureDetail.PNG
INPUT d:\BAKALAR\bp\text\images\structureDetail.PNG
INPUT d:\BAKALAR\bp\text\images\structureDetail.PNG
INPUT d:\BAKALAR\bp\text\images\3dobjectDetail.PNG
INPUT d:\BAKALAR\bp\text\images\3dobjectDetail.PNG
INPUT d:\BAKALAR\bp\text\images\3dobjectDetail.PNG
INPUT d:\BAKALAR\bp\text\images\3dobjectDetail.PNG
INPUT d:\BAKALAR\bp\text\images\3dobjectDetail.PNG
INPUT d:\BAKALAR\bp\text\images\3dobjectDetail.PNG
INPUT d:\BAKALAR\bp\text\images\3dobjectDetail.PNG
INPUT d:\BAKALAR\bp\text\images\controllerOptions.png
INPUT d:\BAKALAR\bp\text\images\controllerOptions.png
INPUT d:\BAKALAR\bp\text\images\controllerOptions.png
INPUT d:\BAKALAR\bp\text\images\controllerOptions.png
INPUT d:\BAKALAR\bp\text\images\controllerOptions.png
INPUT d:\BAKALAR\bp\text\images\controllerOptions.png
INPUT d:\BAKALAR\bp\text\images\controllerOptions.png
INPUT D:\Programs\MikTex\tex\latex\lm\omslmr.fd
INPUT D:\Programs\MikTex\tex\latex\lm\omslmr.fd
INPUT D:\Programs\MikTex\tex\latex\lm\omslmr.fd
INPUT D:\Programs\MikTex\tex\latex\lm\omslmr.fd
INPUT d:\BAKALAR\bp\text\images\launcher3.PNG
INPUT d:\BAKALAR\bp\text\images\launcher3.PNG
INPUT d:\BAKALAR\bp\text\images\launcher3.PNG
INPUT d:\BAKALAR\bp\text\images\launcher3.PNG
INPUT d:\BAKALAR\bp\text\images\launcher3.PNG
INPUT d:\BAKALAR\bp\text\images\launcher3.PNG
INPUT d:\BAKALAR\bp\text\images\launcher3.PNG
INPUT d:\BAKALAR\bp\text\images\launcher4.PNG
INPUT d:\BAKALAR\bp\text\images\launcher4.PNG
INPUT d:\BAKALAR\bp\text\images\launcher4.PNG
INPUT d:\BAKALAR\bp\text\images\launcher4.PNG
INPUT d:\BAKALAR\bp\text\images\launcher4.PNG
INPUT d:\BAKALAR\bp\text\images\launcher4.PNG
INPUT d:\BAKALAR\bp\text\images\launcher4.PNG
INPUT d:\BAKALAR\bp\text\images\gallery.PNG
INPUT d:\BAKALAR\bp\text\images\gallery.PNG
INPUT d:\BAKALAR\bp\text\images\gallery.PNG
INPUT d:\BAKALAR\bp\text\images\gallery.PNG
INPUT d:\BAKALAR\bp\text\images\gallery.PNG
INPUT d:\BAKALAR\bp\text\images\gallery.PNG
INPUT d:\BAKALAR\bp\text\images\gallery.PNG
INPUT d:\BAKALAR\bp\text\images\ui1.PNG
INPUT d:\BAKALAR\bp\text\images\ui1.PNG
INPUT d:\BAKALAR\bp\text\images\ui1.PNG
INPUT d:\BAKALAR\bp\text\images\ui1.PNG
INPUT d:\BAKALAR\bp\text\images\ui1.PNG
INPUT d:\BAKALAR\bp\text\images\ui1.PNG
INPUT d:\BAKALAR\bp\text\images\ui1.PNG
INPUT d:\BAKALAR\bp\text\images\ui2.PNG
INPUT d:\BAKALAR\bp\text\images\ui2.PNG
INPUT d:\BAKALAR\bp\text\images\ui2.PNG
INPUT d:\BAKALAR\bp\text\images\ui2.PNG
INPUT d:\BAKALAR\bp\text\images\ui2.PNG
INPUT d:\BAKALAR\bp\text\images\ui2.PNG
INPUT d:\BAKALAR\bp\text\images\ui2.PNG
INPUT d:\BAKALAR\bp\text\images\ui3.PNG
INPUT d:\BAKALAR\bp\text\images\ui3.PNG
INPUT d:\BAKALAR\bp\text\images\ui3.PNG
INPUT d:\BAKALAR\bp\text\images\ui3.PNG
INPUT d:\BAKALAR\bp\text\images\ui3.PNG
INPUT d:\BAKALAR\bp\text\images\ui3.PNG
INPUT d:\BAKALAR\bp\text\images\ui3.PNG
INPUT d:\BAKALAR\bp\text\images\ui4.PNG
INPUT d:\BAKALAR\bp\text\images\ui4.PNG
INPUT d:\BAKALAR\bp\text\images\ui4.PNG
INPUT d:\BAKALAR\bp\text\images\ui4.PNG
INPUT d:\BAKALAR\bp\text\images\ui4.PNG
INPUT d:\BAKALAR\bp\text\images\ui4.PNG
INPUT d:\BAKALAR\bp\text\images\ui4.PNG
INPUT d:\BAKALAR\bp\text\images\ui5.PNG
INPUT d:\BAKALAR\bp\text\images\ui5.PNG
INPUT d:\BAKALAR\bp\text\images\ui5.PNG
INPUT d:\BAKALAR\bp\text\images\ui5.PNG
INPUT d:\BAKALAR\bp\text\images\ui5.PNG
INPUT d:\BAKALAR\bp\text\images\ui5.PNG
INPUT d:\BAKALAR\bp\text\images\ui5.PNG
INPUT d:\BAKALAR\bp\text\images\wireframeAxe.png
INPUT d:\BAKALAR\bp\text\images\wireframeAxe.png
INPUT d:\BAKALAR\bp\text\images\wireframeAxe.png
INPUT d:\BAKALAR\bp\text\images\wireframeAxe.png
INPUT d:\BAKALAR\bp\text\images\wireframeAxe.png
INPUT d:\BAKALAR\bp\text\images\wireframeAxe.png
INPUT d:\BAKALAR\bp\text\images\wireframeAxe.png
INPUT d:\BAKALAR\bp\text\images\2.PNG
INPUT d:\BAKALAR\bp\text\images\2.PNG
INPUT d:\BAKALAR\bp\text\images\2.PNG
INPUT d:\BAKALAR\bp\text\images\2.PNG
INPUT d:\BAKALAR\bp\text\images\2.PNG
INPUT d:\BAKALAR\bp\text\images\2.PNG
INPUT d:\BAKALAR\bp\text\images\2.PNG
INPUT d:\BAKALAR\bp\text\images\10.PNG
INPUT d:\BAKALAR\bp\text\images\10.PNG
INPUT d:\BAKALAR\bp\text\images\10.PNG
INPUT d:\BAKALAR\bp\text\images\10.PNG
INPUT d:\BAKALAR\bp\text\images\10.PNG
INPUT d:\BAKALAR\bp\text\images\10.PNG
INPUT d:\BAKALAR\bp\text\images\10.PNG
INPUT d:\BAKALAR\bp\text\images\4.PNG
INPUT d:\BAKALAR\bp\text\images\4.PNG
INPUT d:\BAKALAR\bp\text\images\4.PNG
INPUT d:\BAKALAR\bp\text\images\4.PNG
INPUT d:\BAKALAR\bp\text\images\4.PNG
INPUT d:\BAKALAR\bp\text\images\4.PNG
INPUT d:\BAKALAR\bp\text\images\4.PNG
INPUT d:\BAKALAR\bp\text\images\7.PNG
INPUT d:\BAKALAR\bp\text\images\7.PNG
INPUT d:\BAKALAR\bp\text\images\7.PNG
INPUT d:\BAKALAR\bp\text\images\7.PNG
INPUT d:\BAKALAR\bp\text\images\7.PNG
INPUT d:\BAKALAR\bp\text\images\7.PNG
INPUT d:\BAKALAR\bp\text\images\7.PNG
INPUT d:\BAKALAR\bp\text\BP_Marek_Klofac_2020.bbl
INPUT d:\BAKALAR\bp\text\BP_Marek_Klofac_2020.bbl
INPUT d:\BAKALAR\bp\text\BP_Marek_Klofac_2020.bbl
INPUT d:\BAKALAR\bp\text\BP_Marek_Klofac_2020.bbl
INPUT D:\Programs\MikTex\fonts\tfm\public\lm\rm-lmtt10.tfm
INPUT d:\BAKALAR\bp\text\BP_Marek_Klofac_2020.aux
INPUT d:\BAKALAR\bp\text\BP_Marek_Klofac_2020.out
INPUT d:\BAKALAR\bp\text\BP_Marek_Klofac_2020.out
INPUT D:\Programs\MikTex\fonts\enc\dvips\lm\lm-mathit.enc
INPUT D:\Programs\MikTex\fonts\enc\dvips\lm\lm-mathsy.enc
INPUT D:\Programs\MikTex\fonts\enc\dvips\lm\lm-rmtt.enc
INPUT D:\Programs\MikTex\fonts\enc\dvips\lm\lm-rm.enc
INPUT D:\Programs\MikTex\fonts\enc\dvips\lm\lm-rmsc.enc
INPUT D:\Programs\MikTex\fonts\enc\dvips\lm\lm-ts1.enc
INPUT D:\Programs\MikTex\fonts\type1\public\lm\lmbx10.pfb
INPUT D:\Programs\MikTex\fonts\type1\public\lm\lmbx10.pfb
INPUT D:\Programs\MikTex\fonts\type1\public\lm\lmbx12.pfb
INPUT D:\Programs\MikTex\fonts\type1\public\lm\lmbx12.pfb
INPUT D:\Programs\MikTex\fonts\type1\public\lm\lmbxi10.pfb
INPUT D:\Programs\MikTex\fonts\type1\public\lm\lmbxi10.pfb
INPUT D:\Programs\MikTex\fonts\type1\public\lm\lmcsc10.pfb
INPUT D:\Programs\MikTex\fonts\type1\public\lm\lmcsc10.pfb
INPUT D:\Programs\MikTex\fonts\type1\public\lm\lmmi10.pfb
INPUT D:\Programs\MikTex\fonts\type1\public\lm\lmmi10.pfb
INPUT D:\Programs\MikTex\fonts\type1\public\lm\lmr10.pfb
INPUT D:\Programs\MikTex\fonts\type1\public\lm\lmr10.pfb
INPUT D:\Programs\MikTex\fonts\type1\public\lm\lmr12.pfb
INPUT D:\Programs\MikTex\fonts\type1\public\lm\lmr12.pfb
INPUT D:\Programs\MikTex\fonts\type1\public\lm\lmr6.pfb
INPUT D:\Programs\MikTex\fonts\type1\public\lm\lmr6.pfb
INPUT D:\Programs\MikTex\fonts\type1\public\lm\lmr8.pfb
INPUT D:\Programs\MikTex\fonts\type1\public\lm\lmr8.pfb
INPUT D:\Programs\MikTex\fonts\type1\public\lm\lmr9.pfb
INPUT D:\Programs\MikTex\fonts\type1\public\lm\lmr9.pfb
INPUT D:\Programs\MikTex\fonts\type1\public\lm\lmri10.pfb
INPUT D:\Programs\MikTex\fonts\type1\public\lm\lmri10.pfb
INPUT D:\Programs\MikTex\fonts\type1\public\lm\lmri9.pfb
INPUT D:\Programs\MikTex\fonts\type1\public\lm\lmri9.pfb
INPUT D:\Programs\MikTex\fonts\type1\public\lm\lmssbx10.pfb
INPUT D:\Programs\MikTex\fonts\type1\public\lm\lmssbx10.pfb
INPUT D:\Programs\MikTex\fonts\type1\public\lm\lmsy10.pfb
INPUT D:\Programs\MikTex\fonts\type1\public\lm\lmsy10.pfb
INPUT D:\Programs\MikTex\fonts\type1\public\lm\lmtt10.pfb
INPUT D:\Programs\MikTex\fonts\type1\public\lm\lmtt10.pfb
