\relax 
\providecommand\hyper@newdestlabel[2]{}
\providecommand*{\memsetcounter}[2]{}
\providecommand\babel@aux[2]{}
\@nameuse{bbl@beforestart}
\catcode `"\active 
\catcode `-\active 
\providecommand\HyperFirstAtBeginDocument{\AtBeginDocument}
\HyperFirstAtBeginDocument{\ifx\hyper@anchor\@undefined
\global\let\oldcontentsline\contentsline
\gdef\contentsline#1#2#3#4{\oldcontentsline{#1}{#2}{#3}}
\global\let\oldnewlabel\newlabel
\gdef\newlabel#1#2{\newlabelxx{#1}#2}
\gdef\newlabelxx#1#2#3#4#5#6{\oldnewlabel{#1}{{#2}{#3}}}
\AtEndDocument{\ifx\hyper@anchor\@undefined
\let\contentsline\oldcontentsline
\let\newlabel\oldnewlabel
\fi}
\fi}
\global\let\hyper@last\relax 
\gdef\HyperFirstAtBeginDocument#1{#1}
\providecommand\HyField@AuxAddToFields[1]{}
\providecommand\HyField@AuxAddToCoFields[2]{}
\@writefile{toc}{\changetocdepth  {3}}
\babel@aux{czech}{}
\babel@aux{czech}{}
\babel@aux{english}{}
\babel@aux{czech}{}
\babel@aux{english}{}
\babel@aux{czech}{}
\@writefile{lof}{\addvspace {10pt}}
\@writefile{lot}{\addvspace {10pt}}
\@writefile{toc}{\contentsline {chapter}{{\' U}vod}{1}{chapter*.7}\protected@file@percent }
\@writefile{lof}{\addvspace {10pt}}
\@writefile{lot}{\addvspace {10pt}}
\@writefile{toc}{\contentsline {chapter}{\chapternumberline {1}Cíl práce}{3}{chapter.1}\protected@file@percent }
\citation{martinek}
\citation{maca}
\citation{vancura}
\citation{sivak}
\citation{whatisapi}
\citation{restapi}
\@writefile{lof}{\addvspace {10pt}}
\@writefile{lot}{\addvspace {10pt}}
\@writefile{toc}{\contentsline {chapter}{\chapternumberline {2}Analýza}{5}{chapter.2}\protected@file@percent }
\@writefile{toc}{\contentsline {section}{\numberline {2.1}Backend projektu VMČK}{5}{section.2.1}\protected@file@percent }
\citation{openapi}
\citation{swagger}
\@writefile{toc}{\contentsline {subsection}{\numberline {2.1.1}Privátní API}{6}{subsection.2.1.1}\protected@file@percent }
\newlabel{private_api}{{\M@TitleReference {2.1.1}{Privátní API}}{6}{Privátní API}{subsection.2.1.1}{}}
\citation{sivak}
\citation{vancura}
\citation{vancura}
\citation{sivak}
\citation{sivak}
\@writefile{toc}{\contentsline {subsection}{\numberline {2.1.2}Reprezentace dat}{7}{subsection.2.1.2}\protected@file@percent }
\newlabel{reprezentace_dat}{{\M@TitleReference {2.1.2}{Reprezentace dat}}{7}{Reprezentace dat}{subsection.2.1.2}{}}
\@writefile{lof}{\contentsline {figure}{\numberline {2.1}{\ignorespaces Schéma databáze navrhnuté Danielem Vančurou \cite  {vancura}.}}{8}{figure.2.1}\protected@file@percent }
\newlabel{fig:vancura_navrh}{{\M@TitleReference {2.1}{Schéma databáze navrhnuté Danielem Vančurou \cite  {vancura}.}}{8}{Schéma databáze navrhnuté Danielem Vančurou \cite {vancura}}{figure.2.1}{}}
\@writefile{lof}{\contentsline {figure}{\numberline {2.2}{\ignorespaces Rozšíření původního databázového schématu o prvky schvalovacího procesu Dominikem Sivákem \cite  {sivak}.}}{9}{figure.2.2}\protected@file@percent }
\newlabel{fig:sivak_navrh}{{\M@TitleReference {2.2}{Rozšíření původního databázového schématu o prvky schvalovacího procesu Dominikem Sivákem \cite  {sivak}.}}{9}{Rozšíření původního databázového schématu o prvky schvalovacího procesu Dominikem Sivákem \cite {sivak}}{figure.2.2}{}}
\citation{antos}
\citation{wireframe}
\citation{post}
\citation{vancura}
\@writefile{toc}{\contentsline {section}{\numberline {2.2}Schvalovací proces 3D modelů}{10}{section.2.2}\protected@file@percent }
\newlabel{schvalovaci_proces}{{\M@TitleReference {2.2}{Schvalovací proces 3D modelů}}{10}{Schvalovací proces 3D modelů}{section.2.2}{}}
\@writefile{toc}{\contentsline {paragraph}{Historik}{10}{section*.8}\protected@file@percent }
\@writefile{toc}{\contentsline {paragraph}{Modelář}{10}{section*.9}\protected@file@percent }
\@writefile{toc}{\contentsline {paragraph}{Grafik}{10}{section*.10}\protected@file@percent }
\citation{suvova}
\citation{zajic}
\@writefile{lof}{\contentsline {figure}{\numberline {2.3}{\ignorespaces UML diagram zachycující tvorbu a schválení modelu. Navrženo v práci Daniela Vančury.}}{12}{figure.2.3}\protected@file@percent }
\newlabel{fig:proces1}{{\M@TitleReference {2.3}{UML diagram zachycující tvorbu a schválení modelu. Navrženo v práci Daniela Vančury.}}{12}{UML diagram zachycující tvorbu a schválení modelu. Navrženo v práci Daniela Vančury}{figure.2.3}{}}
\@writefile{lof}{\contentsline {figure}{\numberline {2.4}{\ignorespaces UML diagram zachycující schválení historikem. Navrženo v práci Daniela Vančury.}}{13}{figure.2.4}\protected@file@percent }
\newlabel{fig:proces2}{{\M@TitleReference {2.4}{UML diagram zachycující schválení historikem. Navrženo v práci Daniela Vančury.}}{13}{UML diagram zachycující schválení historikem. Navrženo v práci Daniela Vančury}{figure.2.4}{}}
\@writefile{lof}{\contentsline {figure}{\numberline {2.5}{\ignorespaces UML diagram zachycující schválení grafikem. Navrženo v práci Daniela Vančury.}}{14}{figure.2.5}\protected@file@percent }
\newlabel{fig:proces3}{{\M@TitleReference {2.5}{UML diagram zachycující schválení grafikem. Navrženo v práci Daniela Vančury.}}{14}{UML diagram zachycující schválení grafikem. Navrženo v práci Daniela Vančury}{figure.2.5}{}}
\@writefile{lof}{\contentsline {figure}{\numberline {2.6}{\ignorespaces Model Mýtské brány v Hradci Králové po aplikaci automatických úprav textur z práce Denisy Sůvové.}}{15}{figure.2.6}\protected@file@percent }
\newlabel{fig:mytskabrana}{{\M@TitleReference {2.6}{Model Mýtské brány v Hradci Králové po aplikaci automatických úprav textur z práce Denisy Sůvové.}}{15}{Model Mýtské brány v Hradci Králové po aplikaci automatických úprav textur z práce Denisy Sůvové}{figure.2.6}{}}
\@writefile{lof}{\contentsline {figure}{\numberline {2.7}{\ignorespaces UML diagram zachycující druhou část schvalovacího procesu. Generace různých variant modelu z práce Michala Martinka.}}{16}{figure.2.7}\protected@file@percent }
\newlabel{fig:proces4}{{\M@TitleReference {2.7}{UML diagram zachycující druhou část schvalovacího procesu. Generace různých variant modelu z práce Michala Martinka.}}{16}{UML diagram zachycující druhou část schvalovacího procesu. Generace různých variant modelu z práce Michala Martinka}{figure.2.7}{}}
\citation{sivak}
\citation{sivak}
\citation{sivak}
\@writefile{toc}{\contentsline {section}{\numberline {2.3}Interní stav 3D objektů}{17}{section.2.3}\protected@file@percent }
\newlabel{stavy}{{\M@TitleReference {2.3}{Interní stav 3D objektů}}{17}{Interní stav 3D objektů}{section.2.3}{}}
\@writefile{toc}{\contentsline {paragraph}{UNFINISHED}{17}{section*.11}\protected@file@percent }
\@writefile{toc}{\contentsline {paragraph}{FINISHED}{17}{section*.12}\protected@file@percent }
\@writefile{toc}{\contentsline {paragraph}{SUBMITTED}{17}{section*.13}\protected@file@percent }
\@writefile{toc}{\contentsline {paragraph}{DECLINED}{17}{section*.14}\protected@file@percent }
\@writefile{toc}{\contentsline {paragraph}{ACCEPTED}{17}{section*.15}\protected@file@percent }
\@writefile{toc}{\contentsline {paragraph}{FINALIZED}{17}{section*.16}\protected@file@percent }
\citation{oculusvr}
\@writefile{lof}{\contentsline {figure}{\numberline {2.8}{\ignorespaces Stavový diagram z práce Dominika Siváka \cite  {sivak}, zachycující možné stavy 3D objektu.}}{18}{figure.2.8}\protected@file@percent }
\newlabel{fig:sivak_stavy}{{\M@TitleReference {2.8}{Stavový diagram z práce Dominika Siváka \cite  {sivak}, zachycující možné stavy 3D objektu.}}{18}{Stavový diagram z práce Dominika Siváka \cite {sivak}, zachycující možné stavy 3D objektu}{figure.2.8}{}}
\@writefile{toc}{\contentsline {section}{\numberline {2.4}Cílová hardwarová platforma}{18}{section.2.4}\protected@file@percent }
\@writefile{toc}{\contentsline {paragraph}{Oculus VR}{18}{section*.17}\protected@file@percent }
\@writefile{toc}{\contentsline {paragraph}{HTC \& Valve}{19}{section*.18}\protected@file@percent }
\citation{vrgineers}
\citation{htcvivecontrollers}
\citation{htcvivecontrollers}
\citation{htcvivecameras}
\citation{htcvivecameras}
\citation{htcvivechaperone}
\citation{htcvivechaperone}
\@writefile{toc}{\contentsline {paragraph}{Ostatní zařízení}{20}{section*.19}\protected@file@percent }
\@writefile{lof}{\contentsline {figure}{\numberline {2.9}{\ignorespaces \textit  {HTC Vive controller} s popisem jednotlivých tlačítek \cite  {htcvivecontrollers}.}}{21}{figure.2.9}\protected@file@percent }
\newlabel{fig:htcvivecontrollers}{{\M@TitleReference {2.9}{\textit  {HTC Vive controller} s popisem jednotlivých tlačítek \cite  {htcvivecontrollers}.}}{21}{\textit {HTC Vive controller} s popisem jednotlivých tlačítek \cite {htcvivecontrollers}}{figure.2.9}{}}
\@writefile{lof}{\contentsline {figure}{\numberline {2.10}{\ignorespaces Nákres rozmístění dvou kamer od \textit  {HTC Vive} headsetu podporující \textit  {outside-in tracking} \cite  {htcvivecameras}.}}{21}{figure.2.10}\protected@file@percent }
\newlabel{fig:htcvivecameras}{{\M@TitleReference {2.10}{Nákres rozmístění dvou kamer od \textit  {HTC Vive} headsetu podporující \textit  {outside-in tracking} \cite  {htcvivecameras}.}}{21}{Nákres rozmístění dvou kamer od \textit {HTC Vive} headsetu podporující \textit {outside-in tracking} \cite {htcvivecameras}}{figure.2.10}{}}
\@writefile{lof}{\contentsline {figure}{\numberline {2.11}{\ignorespaces Nákres systému \textit  {Chaperone} od \textit  {HTC Vive}, poskytující uživateli přehled o konci herní plochy \cite  {htcvivechaperone}.}}{22}{figure.2.11}\protected@file@percent }
\newlabel{fig:htcvivechaperone}{{\M@TitleReference {2.11}{Nákres systému \textit  {Chaperone} od \textit  {HTC Vive}, poskytující uživateli přehled o konci herní plochy \cite  {htcvivechaperone}.}}{22}{Nákres systému \textit {Chaperone} od \textit {HTC Vive}, poskytující uživateli přehled o konci herní plochy \cite {htcvivechaperone}}{figure.2.11}{}}
\@writefile{toc}{\contentsline {section}{\numberline {2.5}Vývojové prostředí Unity}{22}{section.2.5}\protected@file@percent }
\newlabel{unity}{{\M@TitleReference {2.5}{Vývojové prostředí Unity}}{22}{Vývojové prostředí Unity}{section.2.5}{}}
\citation{mb_awake}
\citation{mb_start}
\citation{mb_update}
\@writefile{toc}{\contentsline {paragraph}{Awake()}{23}{section*.20}\protected@file@percent }
\@writefile{toc}{\contentsline {paragraph}{Start()}{23}{section*.21}\protected@file@percent }
\citation{mb_coroutine}
\citation{matouskova}
\citation{unity_diagram}
\citation{unity_diagram}
\@writefile{toc}{\contentsline {paragraph}{Update()}{24}{section*.22}\protected@file@percent }
\@writefile{toc}{\contentsline {paragraph}{StartCoroutine()}{24}{section*.23}\protected@file@percent }
\@writefile{lof}{\contentsline {figure}{\numberline {2.12}{\ignorespaces Část životního cyklu skriptu v rámci Unity. Celý diagram je možné nalézt zde \cite  {unity_diagram}.}}{25}{figure.2.12}\protected@file@percent }
\newlabel{fig:monobehaviour_flowchart}{{\M@TitleReference {2.12}{Část životního cyklu skriptu v rámci Unity. Celý diagram je možné nalézt zde \cite  {unity_diagram}.}}{25}{Část životního cyklu skriptu v rámci Unity. Celý diagram je možné nalézt zde \cite {unity_diagram}}{figure.2.12}{}}
\@writefile{lof}{\addvspace {10pt}}
\@writefile{lot}{\addvspace {10pt}}
\@writefile{toc}{\contentsline {chapter}{\chapternumberline {3}Návrh}{27}{chapter.3}\protected@file@percent }
\newlabel{navrh}{{\M@TitleReference {3}{Návrh}}{27}{Návrh}{chapter.3}{}}
\@writefile{toc}{\contentsline {section}{\numberline {3.1}Autentizace a autorizace}{27}{section.3.1}\protected@file@percent }
\newlabel{auth}{{\M@TitleReference {3.1}{Autentizace a autorizace}}{27}{Autentizace a autorizace}{section.3.1}{}}
\@writefile{toc}{\contentsline {paragraph}{OAuth2 přihlašovací proces}{27}{section*.24}\protected@file@percent }
\@writefile{toc}{\contentsline {paragraph}{Launcher}{28}{section*.25}\protected@file@percent }
\@writefile{lof}{\contentsline {figure}{\numberline {3.1}{\ignorespaces Flowchart diagram zachycující OAuth2 autentizační/autorizační proces.}}{29}{figure.3.1}\protected@file@percent }
\newlabel{fig:oauth2_diagram}{{\M@TitleReference {3.1}{Flowchart diagram zachycující OAuth2 autentizační/autorizační proces.}}{29}{Flowchart diagram zachycující OAuth2 autentizační/autorizační proces}{figure.3.1}{}}
\@writefile{lof}{\contentsline {figure}{\numberline {3.2}{\ignorespaces Navrh uživatelského rozhraní v \textit  {Launcheru}, předtím než se uživatel přihlásí.}}{30}{figure.3.2}\protected@file@percent }
\newlabel{fig:launcher1}{{\M@TitleReference {3.2}{Navrh uživatelského rozhraní v \textit  {Launcheru}, předtím než se uživatel přihlásí.}}{30}{Navrh uživatelského rozhraní v \textit {Launcheru}, předtím než se uživatel přihlásí}{figure.3.2}{}}
\@writefile{lof}{\contentsline {figure}{\numberline {3.3}{\ignorespaces Navrh uživatelského rozhraní v \textit  {Launcheru} poté, co se uživatel přihlásil.}}{30}{figure.3.3}\protected@file@percent }
\newlabel{fig:launcher2}{{\M@TitleReference {3.3}{Navrh uživatelského rozhraní v \textit  {Launcheru} poté, co se uživatel přihlásil.}}{30}{Navrh uživatelského rozhraní v \textit {Launcheru} poté, co se uživatel přihlásil}{figure.3.3}{}}
\@writefile{toc}{\contentsline {section}{\numberline {3.2}Pohyb hráče a avatar}{31}{section.3.2}\protected@file@percent }
\citation{ik}
\citation{ik}
\@writefile{lof}{\contentsline {figure}{\numberline {3.4}{\ignorespaces Vizualizace \textit  {Inverzní Kinematiky} na příkladu pohybu zápěstí \cite  {ik}.}}{32}{figure.3.4}\protected@file@percent }
\newlabel{fig:inversekinematics}{{\M@TitleReference {3.4}{Vizualizace \textit  {Inverzní Kinematiky} na příkladu pohybu zápěstí \cite  {ik}.}}{32}{Vizualizace \textit {Inverzní Kinematiky} na příkladu pohybu zápěstí \cite {ik}}{figure.3.4}{}}
\@writefile{toc}{\contentsline {section}{\numberline {3.3}Uživatelské rozhraní}{32}{section.3.3}\protected@file@percent }
\newlabel{ui}{{\M@TitleReference {3.3}{Uživatelské rozhraní}}{32}{Uživatelské rozhraní}{section.3.3}{}}
\@writefile{toc}{\contentsline {subsection}{\numberline {3.3.1}Typy UI v Unity Engine 3D}{32}{subsection.3.3.1}\protected@file@percent }
\@writefile{toc}{\contentsline {subsection}{\numberline {3.3.2}Seznam všech struktur}{33}{subsection.3.3.2}\protected@file@percent }
\@writefile{toc}{\contentsline {subsection}{\numberline {3.3.3}Detail struktury}{33}{subsection.3.3.3}\protected@file@percent }
\@writefile{lof}{\contentsline {figure}{\numberline {3.5}{\ignorespaces Návrh panelu diegetického uživatelského rozhraní zobrazující všechny struktury.}}{34}{figure.3.5}\protected@file@percent }
\newlabel{fig:allStructures}{{\M@TitleReference {3.5}{Návrh panelu diegetického uživatelského rozhraní zobrazující všechny struktury.}}{34}{Návrh panelu diegetického uživatelského rozhraní zobrazující všechny struktury}{figure.3.5}{}}
\@writefile{lof}{\contentsline {figure}{\numberline {3.6}{\ignorespaces Návrh panelu diegetického uživatelského rozhraní zobrazující detail struktury.}}{34}{figure.3.6}\protected@file@percent }
\newlabel{fig:structureDetail}{{\M@TitleReference {3.6}{Návrh panelu diegetického uživatelského rozhraní zobrazující detail struktury.}}{34}{Návrh panelu diegetického uživatelského rozhraní zobrazující detail struktury}{figure.3.6}{}}
\@writefile{lof}{\contentsline {figure}{\numberline {3.7}{\ignorespaces Návrh panelu diegetického uživatelského rozhraní zobrazující detail 3D objektu.}}{35}{figure.3.7}\protected@file@percent }
\newlabel{fig:3dobjectDetail}{{\M@TitleReference {3.7}{Návrh panelu diegetického uživatelského rozhraní zobrazující detail 3D objektu.}}{35}{Návrh panelu diegetického uživatelského rozhraní zobrazující detail 3D objektu}{figure.3.7}{}}
\@writefile{toc}{\contentsline {subsection}{\numberline {3.3.4}Detail 3D objektu}{35}{subsection.3.3.4}\protected@file@percent }
\@writefile{toc}{\contentsline {subsection}{\numberline {3.3.5}Detail schvalovacího procesu}{35}{subsection.3.3.5}\protected@file@percent }
\@writefile{lof}{\contentsline {figure}{\numberline {3.8}{\ignorespaces Návrh popisu ovládání levého a pravého ovladače.}}{36}{figure.3.8}\protected@file@percent }
\newlabel{fig:controllerOptions}{{\M@TitleReference {3.8}{Návrh popisu ovládání levého a pravého ovladače.}}{36}{Návrh popisu ovládání levého a pravého ovladače}{figure.3.8}{}}
\@writefile{toc}{\contentsline {subsection}{\numberline {3.3.6}Informace o uživateli a záhlaví}{36}{subsection.3.3.6}\protected@file@percent }
\@writefile{toc}{\contentsline {subsection}{\numberline {3.3.7}Popis ovládání}{36}{subsection.3.3.7}\protected@file@percent }
\citation{keyboard}
\@writefile{toc}{\contentsline {section}{\numberline {3.4}Sada nástrojů pro komentování}{37}{section.3.4}\protected@file@percent }
\newlabel{nastroje}{{\M@TitleReference {3.4}{Sada nástrojů pro komentování}}{37}{Sada nástrojů pro komentování}{section.3.4}{}}
\@writefile{toc}{\contentsline {subsection}{\numberline {3.4.1}Mikrofon}{37}{subsection.3.4.1}\protected@file@percent }
\@writefile{toc}{\contentsline {subsection}{\numberline {3.4.2}Štětec}{37}{subsection.3.4.2}\protected@file@percent }
\@writefile{toc}{\contentsline {subsection}{\numberline {3.4.3}Metr}{37}{subsection.3.4.3}\protected@file@percent }
\@writefile{toc}{\contentsline {subsection}{\numberline {3.4.4}Fotoaparát}{38}{subsection.3.4.4}\protected@file@percent }
\@writefile{toc}{\contentsline {subsection}{\numberline {3.4.5}Menu pro výběr nástroje}{38}{subsection.3.4.5}\protected@file@percent }
\@writefile{toc}{\contentsline {section}{\numberline {3.5}Komunikace s privátním API}{38}{section.3.5}\protected@file@percent }
\newlabel{endpoints}{{\M@TitleReference {3.5}{Komunikace s privátním API}}{38}{Komunikace s privátním API}{section.3.5}{}}
\@writefile{toc}{\contentsline {paragraph}{/auth/googlesigin}{38}{section*.26}\protected@file@percent }
\@writefile{toc}{\contentsline {paragraph}{/structures}{39}{section*.27}\protected@file@percent }
\@writefile{toc}{\contentsline {paragraph}{/models}{40}{section*.28}\protected@file@percent }
\@writefile{toc}{\contentsline {paragraph}{/users}{40}{section*.29}\protected@file@percent }
\@writefile{toc}{\contentsline {paragraph}{/approvals}{40}{section*.30}\protected@file@percent }
\@writefile{toc}{\contentsline {paragraph}{/comments}{42}{section*.31}\protected@file@percent }
\@writefile{toc}{\contentsline {section}{\numberline {3.6}Interakce s historickými předměty}{42}{section.3.6}\protected@file@percent }
\newlabel{interakce_navrh}{{\M@TitleReference {3.6}{Interakce s historickými předměty}}{42}{Interakce s historickými předměty}{section.3.6}{}}
\@writefile{toc}{\contentsline {paragraph}{Uchopení}{42}{section*.32}\protected@file@percent }
\@writefile{toc}{\contentsline {paragraph}{Wireframe}{42}{section*.33}\protected@file@percent }
\@writefile{toc}{\contentsline {paragraph}{Škálování}{43}{section*.34}\protected@file@percent }
\@writefile{lof}{\addvspace {10pt}}
\@writefile{lot}{\addvspace {10pt}}
\@writefile{toc}{\contentsline {chapter}{\chapternumberline {4}Realizace}{45}{chapter.4}\protected@file@percent }
\@writefile{toc}{\contentsline {section}{\numberline {4.1}Launcher a přihlášení}{45}{section.4.1}\protected@file@percent }
\citation{auth0}
\@writefile{lof}{\contentsline {figure}{\numberline {4.1}{\ignorespaces Úvodní stránka \textit  {Launcheru} kde se uživatel může přihlásit.}}{47}{figure.4.1}\protected@file@percent }
\newlabel{fig:launcher3}{{\M@TitleReference {4.1}{Úvodní stránka \textit  {Launcheru} kde se uživatel může přihlásit.}}{47}{Úvodní stránka \textit {Launcheru} kde se uživatel může přihlásit}{figure.4.1}{}}
\@writefile{lof}{\contentsline {figure}{\numberline {4.2}{\ignorespaces \textit  {Launcher} stahující VR aplikaci po úspěšném přihlášení uživatele.}}{47}{figure.4.2}\protected@file@percent }
\newlabel{fig:launcher4}{{\M@TitleReference {4.2}{\textit  {Launcher} stahující VR aplikaci po úspěšném přihlášení uživatele.}}{47}{\textit {Launcher} stahující VR aplikaci po úspěšném přihlášení uživatele}{figure.4.2}{}}
\citation{british_museum}
\citation{gallery}
\@writefile{toc}{\contentsline {section}{\numberline {4.2}Virtuální prostředí}{48}{section.4.2}\protected@file@percent }
\@writefile{lof}{\contentsline {figure}{\numberline {4.3}{\ignorespaces Virtuální prostředí galerie s avatarem reprezentující tělo uživatele.}}{49}{figure.4.3}\protected@file@percent }
\newlabel{fig:gallery}{{\M@TitleReference {4.3}{Virtuální prostředí galerie s avatarem reprezentující tělo uživatele.}}{49}{Virtuální prostředí galerie s avatarem reprezentující tělo uživatele}{figure.4.3}{}}
\@writefile{toc}{\contentsline {section}{\numberline {4.3}Pohyb ve virtuálním prostoru}{49}{section.4.3}\protected@file@percent }
\newlabel{pohyb_a_avatar}{{\M@TitleReference {4.3}{Pohyb ve virtuálním prostoru}}{49}{Pohyb ve virtuálním prostoru}{section.4.3}{}}
\citation{eric}
\@writefile{toc}{\contentsline {section}{\numberline {4.4}Uživatelské rozhraní}{51}{section.4.4}\protected@file@percent }
\@writefile{lof}{\contentsline {figure}{\numberline {4.4}{\ignorespaces Seznam všech struktur, hlavní stránka uživatelského rozhraní.}}{53}{figure.4.4}\protected@file@percent }
\newlabel{fig:ui1}{{\M@TitleReference {4.4}{Seznam všech struktur, hlavní stránka uživatelského rozhraní.}}{53}{Seznam všech struktur, hlavní stránka uživatelského rozhraní}{figure.4.4}{}}
\@writefile{lof}{\contentsline {figure}{\numberline {4.5}{\ignorespaces Detail struktury, záložka zobrazuje informace o struktuře.}}{53}{figure.4.5}\protected@file@percent }
\newlabel{fig:ui2}{{\M@TitleReference {4.5}{Detail struktury, záložka zobrazuje informace o struktuře.}}{53}{Detail struktury, záložka zobrazuje informace o struktuře}{figure.4.5}{}}
\@writefile{lof}{\contentsline {figure}{\numberline {4.6}{\ignorespaces Detail struktury, záložka zobrazuje varianty 3D objektů.}}{54}{figure.4.6}\protected@file@percent }
\newlabel{fig:ui3}{{\M@TitleReference {4.6}{Detail struktury, záložka zobrazuje varianty 3D objektů.}}{54}{Detail struktury, záložka zobrazuje varianty 3D objektů}{figure.4.6}{}}
\@writefile{lof}{\contentsline {figure}{\numberline {4.7}{\ignorespaces Detail struktury, záložka zobrazuje modelové iterace v rámci schvalovacího procesu struktury.}}{54}{figure.4.7}\protected@file@percent }
\newlabel{fig:ui4}{{\M@TitleReference {4.7}{Detail struktury, záložka zobrazuje modelové iterace v rámci schvalovacího procesu struktury.}}{54}{Detail struktury, záložka zobrazuje modelové iterace v rámci schvalovacího procesu struktury}{figure.4.7}{}}
\citation{wireframeShader}
\@writefile{lof}{\contentsline {figure}{\numberline {4.8}{\ignorespaces Detail modelové iterace, panel zobrazuje připojené komentáře.}}{55}{figure.4.8}\protected@file@percent }
\newlabel{fig:ui5}{{\M@TitleReference {4.8}{Detail modelové iterace, panel zobrazuje připojené komentáře.}}{55}{Detail modelové iterace, panel zobrazuje připojené komentáře}{figure.4.8}{}}
\@writefile{toc}{\contentsline {section}{\numberline {4.5}Interakce s objekty}{55}{section.4.5}\protected@file@percent }
\citation{microphone}
\citation{stt}
\@writefile{lof}{\contentsline {figure}{\numberline {4.9}{\ignorespaces Rozdíl mezi normálním a síťovým zobrazením modelu ve finální aplikaci.}}{56}{figure.4.9}\protected@file@percent }
\newlabel{fig:wireframeAxe}{{\M@TitleReference {4.9}{Rozdíl mezi normálním a síťovým zobrazením modelu ve finální aplikaci.}}{56}{Rozdíl mezi normálním a síťovým zobrazením modelu ve finální aplikaci}{figure.4.9}{}}
\@writefile{toc}{\contentsline {section}{\numberline {4.6}Nástroje}{56}{section.4.6}\protected@file@percent }
\citation{stetec}
\citation{xytohsv}
\@writefile{toc}{\contentsline {paragraph}{Mikrofon}{57}{section*.35}\protected@file@percent }
\@writefile{toc}{\contentsline {paragraph}{Štětec}{57}{section*.36}\protected@file@percent }
\@writefile{toc}{\contentsline {paragraph}{Metr}{58}{section*.37}\protected@file@percent }
\@writefile{lof}{\contentsline {figure}{\numberline {4.10}{\ignorespaces Panel pro výběr nástrojů ke zkoumání a komentování.}}{59}{figure.4.10}\protected@file@percent }
\newlabel{fig:panelNastroju}{{\M@TitleReference {4.10}{Panel pro výběr nástrojů ke zkoumání a komentování.}}{59}{Panel pro výběr nástrojů ke zkoumání a komentování}{figure.4.10}{}}
\@writefile{lof}{\contentsline {figure}{\numberline {4.11}{\ignorespaces Nástroj mikrofon společně s panelem, kde se zobrazuje mluvené slovo v textové podobě.}}{59}{figure.4.11}\protected@file@percent }
\newlabel{fig:mikrofon}{{\M@TitleReference {4.11}{Nástroj mikrofon společně s panelem, kde se zobrazuje mluvené slovo v textové podobě.}}{59}{Nástroj mikrofon společně s panelem, kde se zobrazuje mluvené slovo v textové podobě}{figure.4.11}{}}
\@writefile{lof}{\contentsline {figure}{\numberline {4.12}{\ignorespaces Nástroj štětec, pomocí kterého lze kreslit v prostoru.}}{60}{figure.4.12}\protected@file@percent }
\newlabel{fig:stetec}{{\M@TitleReference {4.12}{Nástroj štětec, pomocí kterého lze kreslit v prostoru.}}{60}{Nástroj štětec, pomocí kterého lze kreslit v prostoru}{figure.4.12}{}}
\@writefile{lof}{\contentsline {figure}{\numberline {4.13}{\ignorespaces Nástroj metr, který měří přesnou vzdálenost mezi hroty jehlanů.}}{60}{figure.4.13}\protected@file@percent }
\newlabel{fig:metr}{{\M@TitleReference {4.13}{Nástroj metr, který měří přesnou vzdálenost mezi hroty jehlanů.}}{60}{Nástroj metr, který měří přesnou vzdálenost mezi hroty jehlanů}{figure.4.13}{}}
\@writefile{lof}{\addvspace {10pt}}
\@writefile{lot}{\addvspace {10pt}}
\@writefile{toc}{\contentsline {chapter}{\chapternumberline {5}Testování prototypu}{61}{chapter.5}\protected@file@percent }
\@writefile{toc}{\contentsline {section}{\numberline {5.1}Testovací scénáře}{61}{section.5.1}\protected@file@percent }
\@writefile{toc}{\contentsline {subsection}{\numberline {5.1.1}Přihlášení}{61}{subsection.5.1.1}\protected@file@percent }
\@writefile{toc}{\contentsline {subsection}{\numberline {5.1.2}Pohyb a ovládání}{62}{subsection.5.1.2}\protected@file@percent }
\@writefile{toc}{\contentsline {subsection}{\numberline {5.1.3}Zkoumání historického modelu}{63}{subsection.5.1.3}\protected@file@percent }
\@writefile{toc}{\contentsline {section}{\numberline {5.2}Výsledky}{64}{section.5.2}\protected@file@percent }
\@writefile{toc}{\contentsline {paragraph}{Přihlášení}{64}{section*.38}\protected@file@percent }
\@writefile{toc}{\contentsline {paragraph}{Pohyb a ovládání}{65}{section*.39}\protected@file@percent }
\@writefile{toc}{\contentsline {paragraph}{Zkoumání historického modelu}{65}{section*.40}\protected@file@percent }
\bibstyle{csn690}
\bibdata{mybibliographyfile}
\@writefile{lof}{\addvspace {10pt}}
\@writefile{lot}{\addvspace {10pt}}
\@writefile{toc}{\contentsline {chapter}{Z{\' a}v{\v e}r}{67}{chapter*.41}\protected@file@percent }
\bibcite{martinek}{1}
\bibcite{maca}{2}
\bibcite{vancura}{3}
\bibcite{sivak}{4}
\bibcite{whatisapi}{5}
\bibcite{restapi}{6}
\bibcite{openapi}{7}
\bibcite{swagger}{8}
\bibcite{antos}{9}
\bibcite{wireframe}{10}
\@writefile{toc}{\contentsline {chapter}{Literatura}{69}{chapter*.42}\protected@file@percent }
\bibcite{post}{11}
\bibcite{suvova}{12}
\bibcite{zajic}{13}
\bibcite{oculusvr}{14}
\bibcite{vrgineers}{15}
\bibcite{htcvivecontrollers}{16}
\bibcite{htcvivecameras}{17}
\bibcite{htcvivechaperone}{18}
\bibcite{mb_awake}{19}
\bibcite{mb_start}{20}
\bibcite{mb_update}{21}
\bibcite{mb_coroutine}{22}
\bibcite{matouskova}{23}
\bibcite{unity_diagram}{24}
\bibcite{ik}{25}
\bibcite{keyboard}{26}
\bibcite{auth0}{27}
\bibcite{british_museum}{28}
\bibcite{gallery}{29}
\bibcite{eric}{30}
\bibcite{wireframeShader}{31}
\bibcite{microphone}{32}
\bibcite{stt}{33}
\bibcite{stetec}{34}
\bibcite{xytohsv}{35}
\@writefile{lof}{\addvspace {10pt}}
\@writefile{lot}{\addvspace {10pt}}
\@writefile{toc}{\contentsline {appendix}{\chapternumberline {A}Seznam použitých zkratek}{73}{appendix.A}\protected@file@percent }
\@writefile{lof}{\addvspace {10pt}}
\@writefile{lot}{\addvspace {10pt}}
\@writefile{toc}{\contentsline {appendix}{\chapternumberline {B}Obsah přiloženého CD}{75}{appendix.B}\protected@file@percent }
\memsetcounter{lastsheet}{89}
\memsetcounter{lastpage}{75}
\gdef \@abspage@last{89}
