{
  "type": "service_account",
  "project_id": "vmck---speech-to-1618757461227",
  "private_key_id": "f3373a7e81f4c74e22d514ca71930b824781f9f0",
  "private_key": "-----BEGIN PRIVATE KEY-----\nMIIEvQIBADANBgkqhkiG9w0BAQEFAASCBKcwggSjAgEAAoIBAQDHo+mi18oxVdrW\ntvXcfy/NchC1n4q2I1oAKR56H1xd1/IGeAO1Whc2jXB1yEfEnjS2aeZ32YBsvIrC\ntpZcEw51kZNWpnX/tlxocpdQuCElfCijbi2nD1VDi/1JD+4v3B52qKuP9H4gk8+A\nIqoWZ0xpZRj8RojEwTxXoMvoV07/MoU7Idz9AZTyre4JqF9VTXRFCKdf9Puzh1H9\nhhpcS4PDAoPAXgjLqic23BcPS1spR9rj0+kfVRJk+ouX5JGJwbsUUNKRKp1/Q1x2\nQ6cv20qU1gLkyNe5GKDi1446CCWPfp4ObWUkAL0kiJ7Yjb26BDnMr0q9eN2UBPkX\nlBCGw2GvAgMBAAECggEAD0cfSr5SKN21y5dgz/5OaDMseC8SFxzezFhZOWX2VEWB\nrgu315m3YQ4Ikdrr3cNwVpgFcnKLU3Gc+jMC5V+dTFNW/9s+oye6K/wTpwe68aVu\nGWOwdrJuXKb1O9wjkYy6KsEpr/COnmucBjr2N+oGfPem+9diAWdQTjHDU6/VdHiv\nWE9snppO+W7LbgyWJMfOtPmuDzY0oocxXxalbwTqZieP4GAe4ZJUj3CA1xGiP3Rr\nAvAfJNVsrb5An6ceflElhM4e96vRpFN7MoDk8AGAoXqiMS2gDEV2SxGu6jU+j/cH\nB+ulEkMicBSpBxhDkL0yTbrWAz7udQBdaIZHY1I5YQKBgQDkib9b0MEl8EC+y/1I\nSydHftFGNELtt02Iy8dDTNO2DO59CjmRIuYR722pbiuv6OqrnFYdVTRdNfho3hoQ\njbmBTJ5SKBS0Ffs6amUCOtMh0AgpieqY9BW4QwctDIdzOyXxV4aZvCiJ64YT1uBr\nKyhpgd+fpquPuzxd087zz5a+dwKBgQDfoTc9hZkz6hLT3TIBSxzpQT7QKWbtLYrh\n0SLkhNmh7ev494vZ810azbB/jOua/4E7SlN1ty27UTpd6C+HRk0+rsW9VT2XMJmo\nHw6wEp1YBNmjzY4cx6gXLs4RAtJ/OWqXVHSK7Ovd/HNK39q3rMyeFhOAT3rmrKPe\nSlqA/D0siQKBgQDkFM1T1s1NDa+wO2l2QvrakahORk4dbHkG80jU09HeuJ0zUYcO\nYCP49lkdZQRYtT2vM4GGGMj/1aMrFa4xox/l+Q9wsuumpuFp9VEFnquj7TiYLDpj\nmAYtNUfuH7j2uasuZ8m/mFdk/hd7qVGj4xib46/IZ9CEy7p9cavzC9RIFQKBgBiZ\nWkM5M+4C/IkzlrGPuqFp3Of29ex3CwTmBWmPt4TZcBCV4ltaKs6s+5I8RRpqqqOD\n/IRBXxVwzPPRe5DsychwXy4Bd2HvJafZqrrxgT9SYUJkdRJzX+kU6/PxFIiMH06A\nKsWxZAyqHWCKGTwFFQj6srB1jbZcHTZxhV0U4gHJAoGALufL2tFv1vCDtisZJmXq\nQ77RDn9nlroD4Gmay+glqo/lCuBfuRPBYRuk2bF+RSgan63zDnZnRe1whsxDYjiX\nu9TX946wnZ88sH2RI5t9vlYxfI8x506ZrxsaQy/p2k9408mqsVC0RJ8k1jop1RSg\nwPvOCAn9DfG3his3fFL3Nrw=\n-----END PRIVATE KEY-----\n",
  "client_email": "starting-account-exg8ioyb2auj@vmck---speech-to-1618757461227.iam.gserviceaccount.com",
  "client_id": "116084215313038211654",
  "auth_uri": "https://accounts.google.com/o/oauth2/auth",
  "token_uri": "https://oauth2.googleapis.com/token",
  "auth_provider_x509_cert_url": "https://www.googleapis.com/oauth2/v1/certs",
  "client_x509_cert_url": "https://www.googleapis.com/robot/v1/metadata/x509/starting-account-exg8ioyb2auj%40vmck---speech-to-1618757461227.iam.gserviceaccount.com"
}
